{
    "_id": "Or0jjL8xS3GyiMq0",
    "data": {
        "attributes": {
            "ac": {
                "value": 18
            },
            "hardness": 0,
            "hasHealth": true,
            "hp": {
                "details": "",
                "max": 10,
                "temp": 0,
                "tempmax": 0,
                "value": 10
            },
            "stealth": {
                "details": "<p>DC 22</p>",
                "value": 12
            }
        },
        "creatureType": "",
        "details": {
            "description": "<p>Discreet webbing at throat level snags a creature that walks into it.</p>",
            "disable": "<p>Survival (trained) or Thievery (expert) DC 18 to rearrange the webbing.</p>",
            "isComplex": false,
            "level": 1,
            "reset": "",
            "routine": ""
        },
        "flavourText": "",
        "nethysUrl": "",
        "recallKnowledgeText": "",
        "saves": {
            "fortitude": {
                "rank": 0,
                "saveDetail": "",
                "value": 11
            },
            "reflex": {
                "rank": 0,
                "saveDetail": "",
                "value": 5
            },
            "will": {
                "rank": 0,
                "saveDetail": "",
                "value": null
            }
        },
        "schema": {
            "version": {
                "value": ""
            }
        },
        "sidebarText": "",
        "source": {
            "value": ""
        },
        "statusEffects": [],
        "traits": {
            "ci": [],
            "di": {
                "custom": "",
                "selected": {},
                "value": []
            },
            "dr": [],
            "dv": [],
            "traits": {
                "custom": "",
                "value": []
            }
        }
    },
    "effects": [],
    "flags": {},
    "img": "systems/pf2e/icons/default-icons/hazard.svg",
    "items": [
        {
            "_id": "LZTjCUaLv54zwB8W",
            "data": {
                "actionCategory": {
                    "value": ""
                },
                "actionType": {
                    "value": "reaction"
                },
                "actions": {
                    "value": ""
                },
                "description": {
                    "value": "<p><strong>Trigger</strong> A creature steps into the square with the web tripwire.</p>\n<p><strong>Effect</strong> The web lurker noose makes a noose Strike against the triggering creature.</p>"
                },
                "rarity": {
                    "value": "common"
                },
                "requirements": {
                    "value": ""
                },
                "rules": [],
                "slug": null,
                "source": {
                    "value": ""
                },
                "traits": {
                    "custom": "",
                    "rarity": {
                        "value": "common"
                    },
                    "value": [
                        "attack"
                    ]
                },
                "trigger": {
                    "value": ""
                },
                "weapon": {
                    "value": ""
                }
            },
            "effects": [],
            "flags": {},
            "img": "systems/pf2e/icons/actions/Reaction.png",
            "name": "Web Noose",
            "sort": 100000,
            "type": "action"
        },
        {
            "_id": "VNaaW87S24zzxXZh",
            "data": {
                "attack": {
                    "value": ""
                },
                "attackEffects": {
                    "custom": "",
                    "value": [
                        "Grab"
                    ]
                },
                "bonus": {
                    "value": "13"
                },
                "brokenThreshold": {
                    "value": 0
                },
                "bulkCapacity": {
                    "value": ""
                },
                "collapsed": {
                    "value": false
                },
                "containerId": {
                    "value": ""
                },
                "damageRolls": {
                    "mwdx5rvny9h800405t75e": {
                        "damage": "3d6",
                        "damageType": "bludgeoning"
                    }
                },
                "description": {
                    "value": "<p>On a successful strike, the target is grabbed and pulled off the ground (Escape DC 22). The target takes [[/r 1d6 #bludgeoning]] bludgeoning damage at the end of each of its turns as long as it's caught in the noose.</p>"
                },
                "equipped": {
                    "value": false
                },
                "equippedBulk": {
                    "value": ""
                },
                "hardness": {
                    "value": 0
                },
                "hp": {
                    "value": 0
                },
                "identification": {
                    "status": "identified"
                },
                "identified": {
                    "value": true
                },
                "invested": {
                    "value": false
                },
                "maxHp": {
                    "value": 0
                },
                "negateBulk": {
                    "value": "0"
                },
                "preciousMaterial": {
                    "value": ""
                },
                "preciousMaterialGrade": {
                    "value": ""
                },
                "price": {
                    "value": 0
                },
                "quantity": {
                    "value": 1
                },
                "rarity": {
                    "value": "common"
                },
                "rules": [],
                "size": {
                    "value": "med"
                },
                "slug": null,
                "source": {
                    "value": ""
                },
                "stackGroup": {
                    "value": ""
                },
                "traits": {
                    "custom": "",
                    "rarity": {
                        "value": "common"
                    },
                    "value": [
                        "deadly-d10"
                    ]
                },
                "weaponType": {
                    "value": "melee"
                },
                "weight": {
                    "value": 0
                }
            },
            "effects": [],
            "flags": {},
            "img": "icons/svg/mystery-man.svg",
            "name": "Noose Strike",
            "sort": 200000,
            "type": "melee"
        }
    ],
    "name": "Web Lurker Noose",
    "permission": {
        "default": 0
    },
    "token": {
        "actorId": "Or0jjL8xS3GyiMq0",
        "actorLink": false,
        "bar1": {
            "attribute": "attributes.hp"
        },
        "bar2": {},
        "brightLight": 0,
        "brightSight": 0,
        "dimLight": 0,
        "dimSight": 0,
        "displayBars": 20,
        "displayName": 20,
        "disposition": -1,
        "flags": {},
        "height": 1,
        "img": "systems/pf2e/icons/default-icons/hazard.svg",
        "lightAlpha": 1,
        "lightAngle": 360,
        "lightAnimation": {
            "intensity": 5,
            "speed": 5
        },
        "lockRotation": false,
        "name": "Web Lurker Noose",
        "randomImg": false,
        "rotation": 0,
        "scale": 1,
        "sightAngle": 360,
        "tint": null,
        "vision": false,
        "width": 1
    },
    "type": "hazard"
}
