{
    "_id": "vBUYl8mREwhO2Vst",
    "data": {
        "attributes": {
            "ac": {
                "value": 21
            },
            "hardness": 11,
            "hasHealth": true,
            "hp": {
                "details": "",
                "max": 44,
                "temp": 0,
                "tempmax": 0,
                "value": 44
            },
            "stealth": {
                "details": "(trained)",
                "value": 23
            }
        },
        "creatureType": "",
        "details": {
            "description": "The ceiling is unstable, and any Medium or larger creature that approaches within 5 feet of the collapsed tunnel triggers a cave-in.",
            "disable": "Thievery DC 21 (trained) to prop up the ceiling in key locations prior to the cave-in.",
            "isComplex": false,
            "level": 4,
            "reset": "",
            "routine": ""
        },
        "flavourText": "",
        "nethysUrl": "",
        "recallKnowledgeText": "",
        "saves": {
            "fortitude": {
                "rank": 0,
                "saveDetail": "",
                "value": 12
            },
            "reflex": {
                "rank": 0,
                "saveDetail": "",
                "value": 8
            },
            "will": {
                "rank": 0,
                "saveDetail": "",
                "value": null
            }
        },
        "schema": {
            "version": {
                "value": ""
            }
        },
        "sidebarText": "",
        "source": {
            "value": ""
        },
        "statusEffects": [],
        "traits": {
            "ci": [],
            "di": {
                "custom": "",
                "selected": {},
                "value": [
                    "critical-hits",
                    "object-immunities",
                    "precision"
                ]
            },
            "dr": [],
            "dv": [
                {
                    "exceptions": "",
                    "label": "Sonic",
                    "type": "sonic",
                    "value": "10"
                }
            ],
            "traits": {
                "custom": "",
                "value": []
            }
        }
    },
    "effects": [],
    "flags": {},
    "items": [
        {
            "_id": "GXC9PnE9TL5hNcx5",
            "data": {
                "actionCategory": {
                    "value": ""
                },
                "actionType": {
                    "value": "reaction"
                },
                "actions": {
                    "value": ""
                },
                "description": {
                    "chat": "",
                    "unidentified": "",
                    "value": "<p><strong>Trigger</strong> A Medium or larger creature approaches within 5 feet of the collapsed tunnel;</p>\n<p><strong>Effect</strong> Massive stones in the ceiling fall, dealing [[/r 4d6 #bludgeoning]] bludgeoning damage to the triggering creature and all creatures within 10 feet (DC 18 basic Reflex save).</p>\n<p>Creatures that fail the saving throw are also buried and begin to suffocate. A buried creature can attempt a DC 20 Athletics check every round, breaking free on a success. Other characters who are not buried can Aid on this check.</p>"
                },
                "rarity": {
                    "value": "common"
                },
                "requirements": {
                    "value": ""
                },
                "rules": [],
                "source": {
                    "value": ""
                },
                "traits": {
                    "custom": "",
                    "rarity": {
                        "value": "common"
                    },
                    "value": []
                },
                "trigger": {
                    "value": ""
                },
                "usage": {
                    "value": "held-in-one-hand"
                },
                "weapon": {
                    "value": ""
                }
            },
            "effects": [],
            "flags": {},
            "img": "systems/pf2e/icons/actions/Reaction.png",
            "name": "Falling Stones",
            "sort": 100000,
            "type": "action"
        }
    ],
    "name": "Catacomb Cave-In",
    "permission": {
        "default": 0
    },
    "token": {
        "actorId": "vBUYl8mREwhO2Vst",
        "actorLink": false,
        "bar1": {
            "attribute": "attributes.hp"
        },
        "bar2": {},
        "brightLight": 0,
        "brightSight": 0,
        "dimLight": 0,
        "dimSight": 0,
        "displayBars": 20,
        "displayName": 20,
        "disposition": -1,
        "flags": {},
        "height": 1,
        "img": "icons/svg/mystery-man.svg",
        "lightAlpha": 1,
        "lightAngle": 360,
        "lightAnimation": {
            "intensity": 5,
            "speed": 5
        },
        "lockRotation": false,
        "name": "Catacomb Cave-In",
        "randomImg": false,
        "rotation": 0,
        "scale": 1,
        "sightAngle": 360,
        "tint": null,
        "vision": false,
        "width": 1
    },
    "type": "hazard"
}
