{
    "_id": "NEbr7nKuiluJgBHT",
    "data": {
        "baseItem": null,
        "brokenThreshold": {
            "value": 0
        },
        "bulkCapacity": {
            "value": ""
        },
        "collapsed": {
            "value": false
        },
        "containerId": {
            "value": ""
        },
        "description": {
            "chat": "",
            "unidentified": "",
            "value": "<p><span>This item is crafted by a spellcaster who wishes to become a lich. When a lich is destroyed, its soul flees to the phylactery. The phylactery then rebuilds the lich's undead body over the course of 1d10 days. Afterward, the lich manifests next to the phylactery, fully healed and in a new body (therefore, it lacks any equipment it had on its old body). A lich's phylactery must be destroyed to prevent a lich from returning.<br /></span></p>\n<p><span>The standard phylactery is a sealed metal box containing strips of parchment inscribed with magical phrases. This box has Hardness 9 and 36 HP, but some liches devise more durable or difficult-to-obtain phylacteries. A phylactery might also come in the form of a ring, an amulet, or a similar item; the specifics are up to the creator.</span></p>"
        },
        "equipped": {
            "value": false
        },
        "equippedBulk": {
            "value": ""
        },
        "hardness": {
            "value": 0
        },
        "hp": {
            "value": 0
        },
        "identification": {
            "status": "identified"
        },
        "identified": {
            "value": true
        },
        "invested": {
            "value": false
        },
        "level": {
            "value": "12"
        },
        "maxHp": {
            "value": 0
        },
        "negateBulk": {
            "value": ""
        },
        "preciousMaterial": {
            "value": ""
        },
        "preciousMaterialGrade": {
            "value": ""
        },
        "price": {
            "value": "1,600 gp"
        },
        "quantity": {
            "value": "1"
        },
        "rarity": {
            "value": "common"
        },
        "rules": [],
        "size": {
            "value": "med"
        },
        "source": {
            "value": ""
        },
        "stackGroup": {
            "value": ""
        },
        "traits": {
            "custom": "",
            "rarity": {
                "value": "rare"
            },
            "usage": {
                "value": "held-in-one-hand"
            },
            "value": [
                "arcane",
                "necromancy",
                "negative"
            ]
        },
        "usage": {
            "value": "held-in-one-hand"
        },
        "weight": {
            "value": "-"
        }
    },
    "effects": [],
    "flags": {},
    "img": "systems/pf2e/icons/equipment/held-items/lich-phylactery.jpg",
    "name": "Lich Phylactery",
    "permission": {
        "default": 0
    },
    "type": "equipment"
}
