{
    "_id": "QoS5lEJqji2h490F",
    "data": {
        "attributes": {
            "ac": {
                "value": 31
            },
            "hardness": 20,
            "hasHealth": true,
            "hp": {
                "details": "",
                "max": 80,
                "temp": 0,
                "tempmax": 0,
                "value": 80
            },
            "stealth": {
                "details": "(expert) or detect magic to note the presence of necromantic energies suffusing the crystals.",
                "value": 34
            }
        },
        "creatureType": "",
        "details": {
            "description": "Sharp, bloodthirsty crystals make walking through this chamber treacherous.",
            "disable": "Religion DC 30 (expert) to utter prayers that quell the crystals' necromantic compulsion to drink blood.",
            "isComplex": false,
            "level": 11,
            "reset": "",
            "routine": ""
        },
        "flavourText": "",
        "nethysUrl": "",
        "recallKnowledgeText": "",
        "saves": {
            "fortitude": {
                "rank": 0,
                "saveDetail": "",
                "value": 24
            },
            "reflex": {
                "rank": 0,
                "saveDetail": "",
                "value": 12
            },
            "will": {
                "rank": 0,
                "saveDetail": "",
                "value": null
            }
        },
        "schema": {
            "version": {
                "value": ""
            }
        },
        "sidebarText": "",
        "source": {
            "value": ""
        },
        "statusEffects": [],
        "traits": {
            "ci": [],
            "di": {
                "custom": "Critical Hits (except bludgeoning or sonic)",
                "selected": {},
                "value": [
                    "object-immunities",
                    "precision",
                    "custom"
                ]
            },
            "dr": [],
            "dv": [
                {
                    "exceptions": "",
                    "label": "Sonic",
                    "type": "sonic",
                    "value": "10"
                }
            ],
            "traits": {
                "custom": "",
                "value": [
                    "environmental",
                    "magical"
                ]
            }
        }
    },
    "effects": [],
    "flags": {},
    "img": "systems/pf2e/icons/default-icons/hazard.svg",
    "items": [
        {
            "_id": "3ueUOMbC3RvbqrJs",
            "data": {
                "actionCategory": {
                    "value": ""
                },
                "actionType": {
                    "value": "reaction"
                },
                "actions": {
                    "value": ""
                },
                "description": {
                    "chat": "",
                    "unidentified": "",
                    "value": "<p><strong>Trigger</strong>: A creature with blood moves through a patch of lifeleech crystals.</p>\n<p><strong>Effect</strong>: The crystals twist and slash, animating and cutting into the creature as it walks, dealing [[/r 5d8 #slashing]] slashing damage. The creature must attempt a DC 28 Reflex saving throw.</p>\n<hr />\n<p><strong>Critical Success</strong>: The creature is unaffected.</p>\n<p><strong>Success</strong>: The creature takes full damage and is @Compendium[pf2e.conditionitems.Drained]{Drained} 1.</p>\n<p><strong>Failure</strong>: The creature takes double damage and is @Compendium[pf2e.conditionitems.Drained]{Drained} 2.</p>\n<p><strong>Critical Failure</strong>: As failure, plus the creature's blood causes fresh growth. A new 10-foot-square patch of lifeleech crystals grows in an adjacent space to the current patch of crystals.</p>"
                },
                "rarity": {
                    "value": "common"
                },
                "requirements": {
                    "value": ""
                },
                "rules": [],
                "source": {
                    "value": ""
                },
                "traits": {
                    "custom": "",
                    "rarity": {
                        "value": "common"
                    },
                    "selected": {},
                    "value": []
                },
                "trigger": {
                    "value": ""
                },
                "usage": {
                    "value": "held-in-one-hand"
                },
                "weapon": {
                    "value": ""
                }
            },
            "effects": [],
            "flags": {},
            "img": "systems/pf2e/icons/actions/Reaction.png",
            "name": "Slice Legs",
            "sort": 100000,
            "type": "action"
        }
    ],
    "name": "Lifeleech Crystal Patches",
    "permission": {
        "default": 0
    },
    "token": {
        "actorData": {},
        "actorId": "QoS5lEJqji2h490F",
        "actorLink": false,
        "bar1": {
            "attribute": "attributes.hp"
        },
        "bar2": {},
        "brightLight": 0,
        "brightSight": 0,
        "dimLight": 0,
        "dimSight": 0,
        "displayBars": 20,
        "displayName": 20,
        "disposition": -1,
        "flags": {},
        "height": 1,
        "img": "systems/pf2e/icons/default-icons/hazard.svg",
        "lightAlpha": 1,
        "lightAngle": 360,
        "lockRotation": false,
        "name": "Lifeleech Crystal Patches",
        "randomImg": false,
        "rotation": 0,
        "scale": 1,
        "sightAngle": 360,
        "tint": null,
        "vision": false,
        "width": 1
    },
    "type": "hazard"
}
