{
    "_id": "pprgrYQ1QnIDGZiy",
    "data": {
        "actionCategory": {
            "value": ""
        },
        "actionType": {
            "label": "Action Type",
            "type": "String",
            "value": "action"
        },
        "actions": {
            "label": "Number of Actions",
            "type": "String",
            "value": "1"
        },
        "description": {
            "chat": "",
            "label": "Description",
            "type": "String",
            "unidentified": "",
            "value": "<p><strong>Requirements</strong> You have both hands free</p>\n<hr />\n<p>You move up, down, or across an incline. Unless it's particularly easy, you must attempt an <span data-pf2-action=\"climb\" data-pf2-glyph=\"A\">Athletics</span> check. The GM determines the DC based on the nature of the incline and environmental circumstances. You're @Compendium[pf2e.conditionitems.Flat-Footed]{Flat-Footed} unless you have a climb Speed.</p>\n<hr />\n<p><strong>Critical Success</strong> You move up, across, or safely down the incline for 5 feet plus 5 feet per 20 feet of your land Speed (a total of 10 feet for most PCs).</p>\n<p><strong>Success</strong> You move up, across, or safely down the incline for 5 feet per 20 feet of your land Speed (a total of 5 feet for most PCs, minimum 5 feet if your Speed is below 20 feet).</p>\n<p><strong>Critical Failure</strong> You fall. If you began the climb on stable ground, you fall and land @Compendium[pf2e.conditionitems.Prone]{Prone}.</p>\n<h2>Sample Climb Tasks</h2>\n<ul>\n<li><strong>Untrained</strong> ladder, steep slope, low-branched tree</li>\n<li><strong>Trained</strong> rigging, rope, typical tree</li>\n<li><strong>Expert</strong> wall with small handholds and footholds</li>\n<li><strong>Master</strong> ceiling with handholds and footholds, rock wall</li>\n<li><strong>Legendary</strong> smooth surface</li>\n</ul>"
        },
        "rarity": {
            "value": "common"
        },
        "requirements": {
            "label": "Requirements",
            "type": "String",
            "value": ""
        },
        "rules": [],
        "source": {
            "label": "Source",
            "type": "String",
            "value": ""
        },
        "traits": {
            "custom": "",
            "label": "Traits",
            "rarity": {
                "value": "common"
            },
            "type": "String",
            "value": [
                "move",
                "skill"
            ]
        },
        "trigger": {
            "label": "Trigger",
            "type": "String",
            "value": ""
        },
        "weapon": {
            "label": "Associated Weapon",
            "type": "String",
            "value": ""
        }
    },
    "effects": [],
    "flags": {},
    "img": "systems/pf2e/icons/actions/OneAction.png",
    "name": "Climb",
    "permission": {
        "default": 0
    },
    "type": "action"
}
