{
    "_id": "I9lfZUiCwMiGogVi",
    "data": {
        "description": {
            "value": ""
        },
        "duration": {
            "expiry": "turn-start",
            "sustained": false,
            "unit": "rounds",
            "value": 0
        },
        "level": {
            "value": 1
        },
        "rarity": {
            "value": "common"
        },
        "rules": [
            {
                "key": "PF2E.RuleElement.FlatModifier",
                "selector": "ac",
                "type": "cicumstance",
                "value": 2
            },
            {
                "key": "PF2E.RuleElement.TokenEffectIcon"
            },
            {
                "key": "PF2E.RuleElement.FlatModifier",
                "selector": "reflex",
                "type": "cicumstance",
                "value": 2
            },
            {
                "key": "PF2E.RuleElement.FlatModifier",
                "selector": "stealth",
                "type": "cicumstance",
                "value": 2
            }
        ],
        "source": {
            "value": ""
        },
        "start": {
            "initiative": null,
            "value": 0
        },
        "target": null,
        "traits": {
            "custom": "",
            "rarity": {
                "value": "common"
            },
            "value": []
        }
    },
    "effects": [],
    "flags": {},
    "img": "systems/pf2e/icons/conditions-2/status_acup.png",
    "name": "Cover : Standard",
    "permission": {
        "default": 0
    },
    "type": "effect"
}
