{
    "_id": "RRusoN3HEGnDO1Dg",
    "data": {
        "description": {
            "chat": "",
            "unidentified": "",
            "value": "<p>Granted by @Compendium[pf2e.equipment-srd.Sea Touch Elixir (Greater)]{Sea Touch Elixir (Greater)}</p>\n<hr />\n<p>Auomatically applied effects:</p>\n<ul>\n<li>gain a swim Speed of 20 feet</li>\n</ul>"
        },
        "duration": {
            "expiry": "turn-start",
            "sustained": false,
            "unit": "hours",
            "value": 24
        },
        "level": {
            "value": 5
        },
        "rarity": {
            "value": "common"
        },
        "rules": [
            {
                "key": "PF2E.RuleElement.BaseSpeed",
                "selector": "swim",
                "value": 20
            }
        ],
        "source": {
            "value": ""
        },
        "start": {
            "initiative": null,
            "value": 0
        },
        "traits": {
            "custom": "",
            "rarity": {
                "value": "common"
            },
            "value": []
        }
    },
    "effects": [],
    "flags": {},
    "img": "systems/pf2e/icons/equipment/alchemical-items/alchemical-elixirs/sea-touch-elixir.jpg",
    "name": "Effect: Sea Touch Elixir (Greater)",
    "permission": {
        "default": 0
    },
    "type": "effect"
}
