{
    "_id": "uR44wELN9OlU68cL",
    "data": {
        "actionCategory": {
            "value": ""
        },
        "actionType": {
            "value": "passive"
        },
        "actions": {
            "value": ""
        },
        "description": {
            "chat": "",
            "unidentified": "",
            "value": "<p>Your studies or prayers have unlocked deeper secrets of your deity's domain. You gain an advanced domain spell from one of your domains (as listed in Table 8-2: Domains on page 441). Increase the number of Focus Points in your focus pool by 1.</p>\n<hr />\n<p><strong>Special</strong> You can select this feat multiple times. Each time, you must select a different advanced domain spell from a domain for which you have an initial domain spell.</p>"
        },
        "featType": {
            "value": "class"
        },
        "level": {
            "value": 8
        },
        "prerequisites": [
            "Domain Initiate"
        ],
        "rarity": {
            "value": "common"
        },
        "rules": [],
        "source": {
            "value": ""
        },
        "traits": {
            "custom": "",
            "rarity": {
                "value": "common"
            },
            "value": [
                "cleric"
            ]
        }
    },
    "effects": [],
    "flags": {},
    "img": "systems/pf2e/icons/features/feats/feats.jpg",
    "name": "Advanced Domain",
    "permission": {
        "default": 0
    },
    "type": "feat"
}
