{
    "_id": "G6rCbMrHacYWNu1K",
    "data": {
        "actionCategory": {
            "value": ""
        },
        "actionType": {
            "value": "passive"
        },
        "actions": {
            "value": ""
        },
        "description": {
            "chat": "",
            "unidentified": "",
            "value": "<p>Your claws carry an irritant that is harmless to you but can be damaging to others. Your claw @Compendium[pf2e.actionspf2e.Strike]{Strikes} deal an additional [[/r 1d4 #persistent poison]] persistent poison damage on a critical hit.</p>"
        },
        "featType": {
            "value": "ancestry"
        },
        "level": {
            "value": "9"
        },
        "prerequisites": {
            "value": [
                "claw unarmed attack"
            ]
        },
        "rarity": {
            "value": "common"
        },
        "rules": [],
        "source": {
            "value": ""
        },
        "traits": {
            "custom": "",
            "rarity": {
                "value": "common"
            },
            "value": [
                "catfolk",
                "disease"
            ]
        }
    },
    "effects": [],
    "flags": {},
    "img": "systems/pf2e/icons/features/feats/feats.jpg",
    "name": "Aggravating Scratch",
    "permission": {
        "default": 0
    },
    "type": "feat"
}
