{
    "_id": "ECcFHAeAmh5F3mxg",
    "data": {
        "actionCategory": {
            "value": ""
        },
        "actionType": {
            "value": "passive"
        },
        "actions": {
            "value": ""
        },
        "description": {
            "value": "<p>Your mastery with weapons both above and below water is unmatched. Whenever you gain a class feature that grants you expert or greater proficiency in certain weapons, you also gain that proficiency in @Compendium[pf2e.equipment-srd.Crossbow]{Crossbows}, @Compendium[pf2e.equipment-srd.Hand Crossbow]{Hand Crossbows}, @Compendium[pf2e.equipment-srd.Longspear]{Longspears}, @Compendium[pf2e.equipment-srd.Spear]{Spears}, @Compendium[pf2e.equipment-srd.Trident]{Tridents}, and all azarketi weapons in which you are trained.</p>"
        },
        "featType": {
            "value": "ancestry"
        },
        "level": {
            "value": 13
        },
        "location": "",
        "prerequisites": [
            "Azarketi Weapon Familiarity"
        ],
        "rarity": {
            "value": "common"
        },
        "rules": [],
        "source": {
            "value": ""
        },
        "traits": {
            "custom": "",
            "rarity": {
                "value": "common"
            },
            "value": [
                "azarketi"
            ]
        }
    },
    "effects": [],
    "flags": {},
    "img": "systems/pf2e/icons/default-icons/feats.jpg",
    "name": "Azarketi Weapon Expertise",
    "permission": {
        "default": 0
    },
    "type": "feat"
}
