{
    "_id": "2kAyZ3LB28BDhXKa",
    "data": {
        "actionCategory": {
            "value": ""
        },
        "actionType": {
            "value": "passive"
        },
        "actions": {
            "value": ""
        },
        "description": {
            "chat": "",
            "unidentified": "",
            "value": "<p>You wield primal magic. You can cast @Compendium[pf2e.spells-srd.Barkskin]{Barkskin} and @Compendium[pf2e.spells-srd.Entangle]{Entangle} as 2nd-level primal innate spells once per day each.</p>"
        },
        "featType": {
            "value": "ancestry"
        },
        "level": {
            "value": "9"
        },
        "prerequisites": {
            "value": [
                ""
            ]
        },
        "rarity": {
            "value": "common"
        },
        "rules": [],
        "source": {
            "value": ""
        },
        "traits": {
            "custom": "",
            "rarity": {
                "value": "common"
            },
            "value": [
                "leshy"
            ]
        }
    },
    "effects": [],
    "flags": {},
    "img": "systems/pf2e/icons/features/feats/feats.jpg",
    "name": "Bark and Tendril",
    "permission": {
        "default": 0
    },
    "type": "feat"
}
