{
    "_id": "wBqQsXzqObrZM9Va",
    "data": {
        "actionCategory": {
            "value": ""
        },
        "actionType": {
            "value": "passive"
        },
        "actions": {
            "value": ""
        },
        "description": {
            "chat": "",
            "unidentified": "",
            "value": "<p>You gain your bloodline's initial bloodline spell. If you don't already have one, you also gain a focus pool of 1 Focus Point, which you can Refocus without any special effort. (For more on bloodline spells, see page 194.)</p>"
        },
        "featType": {
            "value": "archetype"
        },
        "level": {
            "value": 4
        },
        "prerequisites": [
            "Sorcerer Dedication"
        ],
        "rarity": {
            "value": "common"
        },
        "rules": [],
        "source": {
            "value": ""
        },
        "traits": {
            "custom": "",
            "rarity": {
                "value": "common"
            },
            "value": [
                "archetype"
            ]
        }
    },
    "effects": [],
    "flags": {},
    "img": "systems/pf2e/icons/features/feats/feats.jpg",
    "name": "Basic Bloodline Spell",
    "permission": {
        "default": 0
    },
    "type": "feat"
}
