{
    "_id": "HZJqMESaEHTfefz3",
    "data": {
        "actionCategory": {
            "value": ""
        },
        "actionType": {
            "value": "passive"
        },
        "actions": {
            "value": ""
        },
        "description": {
            "chat": "",
            "unidentified": "",
            "value": "<p>The fire of your elemental ancestor manifests like dying embers of a blaze, and your inner charcoal helps staunch bleeding, purify simple poisons, and absorb acid. The DC for you to recover from persistent acid, bleed, and poison damage is 10 instead of 15 (or 5 if you have particularly effective assistance).</p>"
        },
        "featType": {
            "value": "ancestry"
        },
        "level": {
            "value": 1
        },
        "location": "",
        "prerequisites": [],
        "rarity": {
            "value": "common"
        },
        "rules": [],
        "source": {
            "value": ""
        },
        "traits": {
            "custom": "",
            "rarity": {
                "value": "common"
            },
            "value": [
                "ifrit",
                "lineage"
            ]
        },
        "usage": {
            "value": ""
        }
    },
    "effects": [],
    "flags": {},
    "img": "systems/pf2e/icons/features/feats/feats.jpg",
    "name": "Cindersoul",
    "permission": {
        "default": 0
    },
    "type": "feat"
}
