{
    "_id": "wPJFEUOXwf7y5jN3",
    "data": {
        "actionCategory": {
            "value": ""
        },
        "actionType": {
            "value": "reaction"
        },
        "actions": {
            "value": ""
        },
        "description": {
            "chat": "",
            "unidentified": "",
            "value": "<p><strong>Trigger</strong> Your turn ends.</p>\n<p><strong>Requirements</strong> You are currently affected by a mental effect that you gained by failing, but not critically failing, a saving throw.</p>\n<hr />\n<p>You can find a loophole in a mental effect to temporarily overcome it. Until the end of your next turn, you ignore a single mental effect that meets the requirement. You can suppress a particular effect using Cognitive Loophole only once.</p>\n<hr />\n<p><strong>Special</strong> You can use this reaction even if the mental effect is preventing you from using reactions.</p>"
        },
        "featType": {
            "value": "class"
        },
        "level": {
            "value": 16
        },
        "prerequisites": [],
        "rarity": {
            "value": "common"
        },
        "rules": [],
        "source": {
            "value": ""
        },
        "traits": {
            "custom": "",
            "rarity": {
                "value": "common"
            },
            "value": [
                "rogue"
            ]
        }
    },
    "effects": [],
    "flags": {},
    "img": "systems/pf2e/icons/features/feats/feats.jpg",
    "name": "Cognitive Loophole",
    "permission": {
        "default": 0
    },
    "type": "feat"
}
