{
    "_id": "AYXherMu9gFTyXjp",
    "data": {
        "actionCategory": {
            "value": ""
        },
        "actionType": {
            "value": "passive"
        },
        "actions": {
            "value": ""
        },
        "description": {
            "chat": "",
            "unidentified": "",
            "value": "<p>Your poisons are devastatingly potent. When you apply a simple poison with Poison Weapon, the poison deals [[/r 4d4 #poison]] poison damage instead of [[/r 1d4 #poison]] poison damage. When you apply an injury poison to your weapon, the DC to resist that poison increases by 2, to a maximum of your class DC.</p>"
        },
        "featType": {
            "value": "class"
        },
        "level": {
            "value": "12"
        },
        "prerequisites": {
            "value": [
                "Improved Poison Weapon"
            ]
        },
        "rarity": {
            "value": "common"
        },
        "rules": [],
        "source": {
            "value": ""
        },
        "traits": {
            "custom": "",
            "rarity": {
                "value": "uncommon"
            },
            "value": [
                "rogue"
            ]
        }
    },
    "effects": [],
    "flags": {},
    "img": "systems/pf2e/icons/features/feats/feats.jpg",
    "name": "Deadly Poison Weapon",
    "permission": {
        "default": 0
    },
    "type": "feat"
}
