{
    "_id": "r7cgrrHh75R8UEqN",
    "data": {
        "actionCategory": {
            "value": ""
        },
        "actionType": {
            "value": "passive"
        },
        "actions": {
            "value": ""
        },
        "description": {
            "chat": "",
            "unidentified": "",
            "value": "<p>Members of your cult frequently pass themselves off as worshippers of other religions. You can use Occultism instead of Deception to @Compendium[pf2e.actionspf2e.Impersonate]{Impersonate} a typical worshipper of another faith or to @Compendium[pf2e.actionspf2e.Lie]{Lie} specifically to claim you are a member of the faith you are Impersonating. You still need to use the Deception skill to Impersonate a specific worshipper or to perform other deceptive actions, such as attempting to Lie about any other matter.</p>"
        },
        "featType": {
            "value": "skill"
        },
        "level": {
            "value": "1"
        },
        "prerequisites": {
            "value": [
                "trained in Occultism"
            ]
        },
        "rarity": {
            "value": "common"
        },
        "rules": [],
        "source": {
            "value": ""
        },
        "traits": {
            "custom": "",
            "rarity": {
                "value": "common"
            },
            "value": [
                "general",
                "skill"
            ]
        }
    },
    "effects": [],
    "flags": {},
    "img": "systems/pf2e/icons/features/feats/feats.jpg",
    "name": "Deceptive Worship",
    "permission": {
        "default": 0
    },
    "type": "feat"
}
