{
    "_id": "6AXAJuMEMpxU27PJ",
    "data": {
        "actionCategory": {
            "value": ""
        },
        "actionType": {
            "value": "action"
        },
        "actions": {
            "value": "2"
        },
        "description": {
            "chat": "",
            "unidentified": "",
            "value": "<p>Your sneak attack slices through the threads binding magic to a target. Make a Strike against a flat-footed creature (your choice). If your Strike deals sneak attack damage, you attempt to counteract a single spell active on the target. Your counteract level is half your level (rounded up), and your counteract check modifier is equal to your class DC - 10.</p>"
        },
        "featType": {
            "value": "class"
        },
        "level": {
            "value": "16"
        },
        "prerequisites": {
            "value": [
                ""
            ]
        },
        "rarity": {
            "value": "common"
        },
        "rules": [],
        "source": {
            "value": ""
        },
        "traits": {
            "custom": "",
            "rarity": {
                "value": "common"
            },
            "value": [
                "rogue"
            ]
        }
    },
    "effects": [],
    "flags": {},
    "img": "systems/pf2e/icons/features/feats/feats.jpg",
    "name": "Dispelling Slice",
    "permission": {
        "default": 0
    },
    "type": "feat"
}
