{
    "_id": "mf2cdCRV8uowOMOm",
    "data": {
        "actionCategory": {
            "value": ""
        },
        "actionType": {
            "value": "reaction"
        },
        "actions": {
            "value": ""
        },
        "description": {
            "chat": "",
            "unidentified": "",
            "value": "<p><strong>Trigger</strong> A creature within your reach critically fails a Strike against you.</p>\n<p><strong>Requirements</strong> You are benefiting from @Compendium[pf2e.feats-srd.Dueling Parry (Fighter)]{Dueling Parry}.</p>\n<hr />\n<p>You riposte against your flailing enemy. Make a melee Strike against or attempt to @Compendium[pf2e.actionspf2e.Disarm]{Disarm} the triggering creature.</p>"
        },
        "featType": {
            "value": "class"
        },
        "level": {
            "value": 8
        },
        "prerequisites": [
            "Dueling Parry"
        ],
        "rarity": {
            "value": "common"
        },
        "rules": [],
        "source": {
            "value": ""
        },
        "traits": {
            "custom": "",
            "rarity": {
                "value": "common"
            },
            "value": [
                "fighter"
            ]
        }
    },
    "effects": [],
    "flags": {},
    "img": "systems/pf2e/icons/features/feats/feats.jpg",
    "name": "Dueling Riposte",
    "permission": {
        "default": 0
    },
    "type": "feat"
}
