{
    "_id": "txLcSHu6kEfmrJj1",
    "data": {
        "actionCategory": {
            "value": ""
        },
        "actionType": {
            "value": "passive"
        },
        "actions": {
            "value": ""
        },
        "description": {
            "chat": "",
            "unidentified": "",
            "value": "<p>You move as fast and as high as the wind itself. You're permanently quickened. You can use your extra action to Stride or Leap, or to provide one of the actions needed for a High Jump or Long Jump.</p>"
        },
        "featType": {
            "value": "class"
        },
        "level": {
            "value": 20
        },
        "prerequisites": [],
        "rarity": {
            "value": "common"
        },
        "rules": [],
        "source": {
            "value": ""
        },
        "traits": {
            "custom": "",
            "rarity": {
                "value": "common"
            },
            "value": [
                "monk"
            ]
        }
    },
    "effects": [],
    "flags": {},
    "img": "systems/pf2e/icons/features/feats/feats.jpg",
    "name": "Enduring Quickness",
    "permission": {
        "default": 0
    },
    "type": "feat"
}
