{
    "_id": "cmhfYMEM4uzrNIiV",
    "data": {
        "actionCategory": {
            "value": ""
        },
        "actionType": {
            "value": "action"
        },
        "actions": {
            "value": "1"
        },
        "description": {
            "chat": "",
            "unidentified": "",
            "value": "<p><strong>Frequency</strong> once per hour</p>\n<hr />\n<p>You stoke your magic to energize your wings, temporarily transforming them into glowing, majestic forms. For 1 minute, you gain a fly Speed of 30 feet.</p>"
        },
        "featType": {
            "value": "ancestry"
        },
        "level": {
            "value": 9
        },
        "location": "",
        "prerequisites": [
            "Evanescent Wings"
        ],
        "rarity": {
            "value": "common"
        },
        "rules": [],
        "source": {
            "value": ""
        },
        "traits": {
            "custom": "",
            "rarity": {
                "value": "common"
            },
            "value": [
                "concentrate",
                "morph",
                "primal",
                "sprite",
                "transmutation"
            ]
        },
        "usage": {
            "value": ""
        }
    },
    "effects": [],
    "flags": {},
    "img": "systems/pf2e/icons/features/feats/feats.jpg",
    "name": "Energize Wings",
    "permission": {
        "default": 0
    },
    "type": "feat"
}
