{
    "_id": "AxjjAoU1IZaNUGGS",
    "data": {
        "actionCategory": {
            "value": ""
        },
        "actionType": {
            "value": "passive"
        },
        "actions": {
            "value": ""
        },
        "description": {
            "value": "<p>When you roll a success on a save against a fear effect, you get a critical success instead. In addition, any time you gain the @Compendium[pf2e.conditionitems.Frightened]{Frightened} condition, reduce the condition’s value by 1. As usual, this ability reduces the initial frightened condition by 1, so if you have multiple similar abilities, they don’t both take effect.</p>"
        },
        "featType": {
            "value": "bonus"
        },
        "level": {
            "value": 0
        },
        "location": "",
        "prerequisites": [
            "Order of the Scourge"
        ],
        "rarity": {
            "value": "common"
        },
        "rules": [],
        "source": {
            "value": ""
        },
        "traits": {
            "custom": "",
            "rarity": {
                "value": "common"
            },
            "value": []
        }
    },
    "effects": [],
    "flags": {},
    "img": "systems/pf2e/icons/default-icons/feat.svg",
    "name": "Fear No Law, Fear No One",
    "permission": {
        "default": 0
    },
    "type": "feat"
}
