{
    "_id": "pD1oDbUDkNtHadGY",
    "data": {
        "actionCategory": {
            "value": ""
        },
        "actionType": {
            "value": "passive"
        },
        "actions": {
            "value": ""
        },
        "description": {
            "chat": "",
            "unidentified": "",
            "value": "<p>You can magically hurl your weapon at your foe. You gain the hand of the apprentice universalist spell. Universalist spells are a type of focus spell, much like school spells. You start with a focus pool of 1 Focus Point. See Arcane Schools on page 207 for more information about focus spells.</p>"
        },
        "featType": {
            "value": "class"
        },
        "level": {
            "value": 1
        },
        "prerequisites": [
            "universalist wizard"
        ],
        "rarity": {
            "value": "common"
        },
        "rules": [],
        "source": {
            "value": ""
        },
        "traits": {
            "custom": "",
            "rarity": {
                "value": "common"
            },
            "value": [
                "wizard"
            ]
        }
    },
    "effects": [],
    "flags": {},
    "img": "systems/pf2e/icons/features/feats/feats.jpg",
    "name": "Hand of the Apprentice",
    "permission": {
        "default": 0
    },
    "type": "feat"
}
