{
    "_id": "gWyCNTWUhxneOBne",
    "data": {
        "actionCategory": {
            "value": ""
        },
        "actionType": {
            "value": "passive"
        },
        "actions": {
            "value": ""
        },
        "description": {
            "chat": "",
            "unidentified": "",
            "value": "<p>When you aid a friend with a task, you find many ways to help and avoid interfering. On a critical success to @Compendium[pf2e.actionspf2e.Aid]{Aid}, you grant your ally a +3 circumstance bonus if you have expert proficiency in the skill (rather than +2), and you grant your ally a +4 circumstance bonus if you have master proficiency (rather than +3). If you roll a critical failure on a check to Aid, you don't give your ally a -1 circumstance penalty to their check.</p>"
        },
        "featType": {
            "value": "ancestry"
        },
        "level": {
            "value": "9"
        },
        "prerequisites": {
            "value": [
                ""
            ]
        },
        "rarity": {
            "value": "common"
        },
        "rules": [],
        "source": {
            "value": ""
        },
        "traits": {
            "custom": "",
            "rarity": {
                "value": "common"
            },
            "value": [
                "halfling"
            ]
        }
    },
    "effects": [],
    "flags": {},
    "img": "systems/pf2e/icons/features/feats/feats.jpg",
    "name": "Helpful Halfling",
    "permission": {
        "default": 0
    },
    "type": "feat"
}
