{
    "_id": "lkcM4V3VDAtjlR9P",
    "data": {
        "actionCategory": {
            "value": ""
        },
        "actionType": {
            "value": "action"
        },
        "actions": {
            "value": "2"
        },
        "description": {
            "chat": "",
            "unidentified": "",
            "value": "<p>Your blow not only wounds creatures but also shatters their confidence.</p>\n<p>Make a melee Strike. If you hit and deal damage, the target is @Compendium[pf2e.conditionitems.Frightened]{Frightened 1}, or @Compendium[pf2e.conditionitems.Frightened]{Frightened 2} on a critical hit.</p>"
        },
        "featType": {
            "value": "class"
        },
        "level": {
            "value": 2
        },
        "prerequisites": {
            "value": [
                ""
            ]
        },
        "rarity": {
            "value": "common"
        },
        "rules": [],
        "source": {
            "value": ""
        },
        "traits": {
            "custom": "",
            "rarity": {
                "value": "common"
            },
            "value": [
                "fighter",
                "emotion",
                "fear",
                "mental"
            ]
        }
    },
    "effects": [],
    "flags": {},
    "img": "systems/pf2e/icons/features/feats/feats.jpg",
    "name": "Intimidating Strike",
    "permission": {
        "default": 0
    },
    "type": "feat"
}
