{
    "_id": "pivX2SxPQjKDyvHU",
    "data": {
        "actionCategory": {
            "value": ""
        },
        "actionType": {
            "value": "passive"
        },
        "actions": {
            "value": ""
        },
        "description": {
            "chat": "",
            "unidentified": "",
            "value": "<p>Your iruxi unarmed attacks channel the spiritual energy of your ancestors. Any unarmed attacks you acquire from iruxi heritages or ancestry feats gain the effects of a @Compendium[pf2e.equipment-srd.Ghost Touch]{Ghost Touch}&nbsp;property rune.</p>"
        },
        "featType": {
            "value": "ancestry"
        },
        "level": {
            "value": 13
        },
        "location": "",
        "prerequisites": [],
        "rarity": {
            "value": "common"
        },
        "rules": [],
        "source": {
            "value": ""
        },
        "traits": {
            "custom": "",
            "rarity": {
                "value": "common"
            },
            "value": [
                "lizardfolk"
            ]
        },
        "usage": {
            "value": ""
        }
    },
    "effects": [],
    "flags": {},
    "img": "systems/pf2e/icons/features/feats/feats.jpg",
    "name": "Iruxi Spirit Strike",
    "permission": {
        "default": 0
    },
    "type": "feat"
}
