{
    "_id": "YluQPhevo0LKdF1p",
    "data": {
        "actionCategory": {
            "value": ""
        },
        "actionType": {
            "value": "action"
        },
        "actions": {
            "value": "1"
        },
        "description": {
            "chat": "",
            "unidentified": "",
            "value": "<p><strong>Requirements</strong> Your most recent action was to @Compendium[pf2e.actionspf2e.Feint]{Feint}, @Compendium[pf2e.actionspf2e.Request]{Request}, <br />or @Compendium[pf2e.actionspf2e.Demoralize]{Demoralize}, and you failed but didn't critically fail.</p>\n<hr />\n<p>After your attempt to influence someone goes poorly, you add another bit of information or ask a pointed question, possibly salvaging your previous attempt.</p>\n<p>Reroll the failed check and use the new result. If the target of the failed check is the subject of a lead you're pursuing, double your bonus from @Compendium[pf2e.actionspf2e.Pursue a Lead]{Pursue a Lead} on the rerolled check. That creature is temporarily immune to Just One More Thing for 1 day.</p>\n<p>You can also use this action if you failed, but didn't critically fail, at a check to @Compendium[pf2e.actionspf2e.Lie]{Lie}, @Compendium[pf2e.actionspf2e.Gather Information]{Gather Information}, @Compendium[pf2e.actionspf2e.Make an Impression]{Make an Impression}, or @Compendium[pf2e.actionspf2e.Coerce]{Coerce}. In this case, rather than spending 1 action, adding Just One More Thing takes you half the amount of time you initially spent on the check, to a minimum of 1 more round.</p>"
        },
        "featType": {
            "value": "class"
        },
        "level": {
            "value": "10"
        },
        "prerequisites": {
            "value": [
                ""
            ]
        },
        "rarity": {
            "value": "common"
        },
        "rules": [],
        "source": {
            "value": ""
        },
        "traits": {
            "custom": "",
            "rarity": {
                "value": "common"
            },
            "value": [
                "fortune",
                "investigator"
            ]
        }
    },
    "effects": [],
    "flags": {},
    "img": "systems/pf2e/icons/features/feats/feats.jpg",
    "name": "Just One More Thing",
    "permission": {
        "default": 0
    },
    "type": "feat"
}
