{
    "_id": "93vQcuKBESXUKoH5",
    "data": {
        "actionCategory": {
            "value": ""
        },
        "actionType": {
            "value": "passive"
        },
        "actions": {
            "value": ""
        },
        "description": {
            "chat": "",
            "unidentified": "",
            "value": "<p>Your star orb hides a deadly miasma. You can cast 5th-level @Compendium[pf2e.spells-srd.Cloudkill]{Cloudkill}&nbsp;as a divine innate spell once per day. The spell’s normal components are replaced with a focus component (your star orb) and a somatic component to aim the orb towards the location for the spell.</p>"
        },
        "featType": {
            "value": "ancestry"
        },
        "level": {
            "value": 13
        },
        "location": "",
        "prerequisites": [
            "Star Orb"
        ],
        "rarity": {
            "value": "common"
        },
        "rules": [],
        "source": {
            "value": ""
        },
        "traits": {
            "custom": "",
            "rarity": {
                "value": "common"
            },
            "value": [
                "kitsune"
            ]
        },
        "usage": {
            "value": ""
        }
    },
    "effects": [],
    "flags": {},
    "img": "systems/pf2e/icons/features/feats/feats.jpg",
    "name": "Killing Stone",
    "permission": {
        "default": 0
    },
    "type": "feat"
}
