{
    "_id": "PeBz8f9h8Y4OFdws",
    "data": {
        "actionCategory": {
            "value": ""
        },
        "actionType": {
            "value": "passive"
        },
        "actions": {
            "value": ""
        },
        "description": {
            "chat": "",
            "unidentified": "",
            "value": "<p>You gain a +2 status bonus to your Fortitude and Reflex DCs against attempts to @Compendium[pf2e.actionspf2e.Shove]{Shove} or @Compendium[pf2e.actionspf2e.Trip]{Trip} you. You can Shove creatures even if you don't have a hand free. When you successfully Shove a foe, you can Stride away from your opponent (instead of toward it), but you must move the same distance in the opposite direction from where you Shoved it.</p>"
        },
        "featType": {
            "value": "archetype"
        },
        "level": {
            "value": "12"
        },
        "prerequisites": {
            "value": [
                "Golem Grafter Dedication"
            ]
        },
        "rarity": {
            "value": "common"
        },
        "rules": [],
        "source": {
            "value": ""
        },
        "traits": {
            "custom": "",
            "rarity": {
                "value": "common"
            },
            "value": [
                "archetype"
            ]
        }
    },
    "effects": [],
    "flags": {},
    "img": "systems/pf2e/icons/features/feats/feats.jpg",
    "name": "Legs of Stone",
    "permission": {
        "default": 0
    },
    "type": "feat"
}
