{
    "_id": "JkQjKyzfhMWLr9Gs",
    "data": {
        "actionCategory": {
            "value": ""
        },
        "actionType": {
            "value": "reaction"
        },
        "actions": {
            "value": ""
        },
        "description": {
            "chat": "",
            "unidentified": "",
            "value": "<p><strong>Trigger</strong> You fail or critically fail an attack roll or Will save</p>\n<hr />\n<p>You burn out all of your rage to ensure that your attack lands and your mind remains free. Reroll the triggering attack roll or Will save with a +2 circumstance bonus, use the better result, and resolve the effect. You then immediately stop raging.</p>"
        },
        "featType": {
            "value": "class"
        },
        "level": {
            "value": 18
        },
        "prerequisites": [],
        "rarity": {
            "value": "common"
        },
        "rules": [],
        "source": {
            "value": ""
        },
        "traits": {
            "custom": "",
            "rarity": {
                "value": "common"
            },
            "value": [
                "barbarian",
                "concentrate",
                "fortune",
                "rage"
            ]
        }
    },
    "effects": [],
    "flags": {},
    "img": "systems/pf2e/icons/features/feats/feats.jpg",
    "name": "Perfect Clarity",
    "permission": {
        "default": 0
    },
    "type": "feat"
}
