{
    "_id": "FMjihpGLn9eQ14Gw",
    "data": {
        "actionCategory": {
            "value": ""
        },
        "actionType": {
            "value": "action"
        },
        "actions": {
            "value": "1"
        },
        "description": {
            "chat": "",
            "unidentified": "",
            "value": "<p><strong>Frequency</strong> once per 10 minutes</p>\n<hr />\n<p>You stomp the ground with such force that it creates a minor earthquake, with the effects of the @Compendium[pf2e.spells-srd.Earthquake]{Earthquake} spell.</p>"
        },
        "featType": {
            "value": "class"
        },
        "level": {
            "value": 20
        },
        "location": "",
        "prerequisites": [],
        "rarity": {
            "value": "common"
        },
        "rules": [],
        "source": {
            "value": ""
        },
        "traits": {
            "custom": "",
            "rarity": {
                "value": "common"
            },
            "value": [
                "barbarian",
                "manipulate",
                "rage"
            ]
        }
    },
    "effects": [],
    "flags": {},
    "img": "systems/pf2e/icons/features/feats/feats.jpg",
    "name": "Quaking Stomp",
    "permission": {
        "default": 0
    },
    "type": "feat"
}
