{
    "_id": "xRTlbvvBzURgC6M2",
    "data": {
        "actionCategory": {
            "value": ""
        },
        "actionType": {
            "value": "action"
        },
        "actions": {
            "value": "1"
        },
        "description": {
            "chat": "",
            "unidentified": "",
            "value": "<p>You draw your bow and attack with the same action. You @Compendium[pf2e.actionspf2e.Interact]{Interact} to draw a weapon from the bow weapon group that is loaded or has reload 0, then @Compendium[pf2e.actionspf2e.Strike]{Strike} with that weapon.</p>"
        },
        "featType": {
            "value": "archetype"
        },
        "level": {
            "value": "4"
        },
        "prerequisites": {
            "value": [
                "Archer Dedication"
            ]
        },
        "rarity": {
            "value": "common"
        },
        "rules": [],
        "source": {
            "value": ""
        },
        "traits": {
            "custom": "",
            "rarity": {
                "value": "common"
            },
            "value": [
                "archetype",
                "open"
            ]
        }
    },
    "effects": [],
    "flags": {},
    "img": "systems/pf2e/icons/features/feats/feats.jpg",
    "name": "Quick Shot",
    "permission": {
        "default": 0
    },
    "type": "feat"
}
