{
    "_id": "QoPooHpBjPh1sjRD",
    "data": {
        "actionCategory": {
            "value": ""
        },
        "actionType": {
            "value": "action"
        },
        "actions": {
            "value": "1"
        },
        "description": {
            "chat": "",
            "unidentified": "",
            "value": "<p><strong>Requirements</strong> You're fighting a creature of your level or lower that could be identified by Recall Knowledge with a skill in which you're an expert.</p>\n<hr />\n<p>You paid attention during your studies and remember the right way to attack various creatures. Choose a creature that meets the requirements. You learn the resistances, immunities, or weaknesses of the creature (your choice) without needing to successfully Recall Knowledge.</p>"
        },
        "featType": {
            "value": "archetype"
        },
        "level": {
            "value": 12
        },
        "prerequisites": [
            "Swordmaster Dedication",
            "expert in a skill used to Recall Knowledge"
        ],
        "rarity": {
            "value": "common"
        },
        "rules": [],
        "source": {
            "value": ""
        },
        "traits": {
            "custom": "",
            "rarity": {
                "value": "common"
            },
            "value": [
                "archetype",
                "skill"
            ]
        }
    },
    "effects": [],
    "flags": {},
    "img": "systems/pf2e/icons/features/feats/feats.jpg",
    "name": "Recollect Studies",
    "permission": {
        "default": 0
    },
    "type": "feat"
}
