{
    "_id": "OINfbwNZGnlyMqPR",
    "data": {
        "actionCategory": {
            "value": ""
        },
        "actionType": {
            "value": "passive"
        },
        "actions": {
            "value": ""
        },
        "description": {
            "chat": "",
            "unidentified": "",
            "value": "<p><strong>Requirements</strong> You are in Monastic Archer Stance, are wielding <br />a bow, and have a free hand.</p>\n<hr />\n<p>Snatching an arrow out of the air, you instantly put it to your bow and return fire. When you successfully Deflect an Arrow, as part of that reaction you can immediately make a ranged bow @Compendium[pf2e.actionspf2e.Strike]{Strike} by firing the arrow you deflected from your own bow.</p>"
        },
        "featType": {
            "value": "class"
        },
        "level": {
            "value": 6
        },
        "prerequisites": [
            "Deflect Arrow",
            "Monastic Archer Stance"
        ],
        "rarity": {
            "value": "common"
        },
        "rules": [],
        "source": {
            "value": ""
        },
        "traits": {
            "custom": "",
            "rarity": {
                "value": "common"
            },
            "value": [
                "monk"
            ]
        }
    },
    "effects": [],
    "flags": {},
    "img": "systems/pf2e/icons/features/feats/feats.jpg",
    "name": "Return Fire",
    "permission": {
        "default": 0
    },
    "type": "feat"
}
