{
    "_id": "8Qn80RunXaChOM5p",
    "data": {
        "actionCategory": {
            "value": ""
        },
        "actionType": {
            "value": "passive"
        },
        "actions": {
            "value": ""
        },
        "description": {
            "chat": "",
            "unidentified": "",
            "value": "<p>Your shadow assaults your foes. You can cast @Compendium[pf2e.spells-srd.Shadow Blast]{Shadow Blast}&nbsp;as a 5th-level occult innate spell once per day. At 17th level, your <em>shadow blast</em> is heightened to 6th level.</p>"
        },
        "featType": {
            "value": "ancestry"
        },
        "level": {
            "value": 13
        },
        "location": "",
        "prerequisites": [],
        "rarity": {
            "value": "common"
        },
        "rules": [],
        "source": {
            "value": ""
        },
        "traits": {
            "custom": "",
            "rarity": {
                "value": "common"
            },
            "value": [
                "fetchling"
            ]
        },
        "usage": {
            "value": ""
        }
    },
    "effects": [],
    "flags": {},
    "img": "systems/pf2e/icons/features/feats/feats.jpg",
    "name": "Shadow’s Assault",
    "permission": {
        "default": 0
    },
    "type": "feat"
}
