{
    "_id": "sGSf5BdopT0zWOWs",
    "data": {
        "actionCategory": {
            "value": ""
        },
        "actionType": {
            "value": "passive"
        },
        "actions": {
            "value": ""
        },
        "description": {
            "chat": "",
            "unidentified": "",
            "value": "<p>The stone around you is your ally, and you have learned to use it to shore up your weaknesses.</p>\n<p>As long as you remain on the ground and are adjacent to a vertical stone wall that rises to your height or taller, you aren't @Compendium[pf2e.conditionitems.Flat-Footed]{Flat-Footed} against attacks as a result of being flanked. This works even if you are at the outside corner of the wall.</p>"
        },
        "featType": {
            "value": "ancestry"
        },
        "level": {
            "value": "5"
        },
        "prerequisites": {
            "value": [
                ""
            ]
        },
        "rarity": {
            "value": "common"
        },
        "rules": [],
        "source": {
            "value": ""
        },
        "traits": {
            "custom": "",
            "rarity": {
                "value": "common"
            },
            "value": [
                "dwarf"
            ]
        }
    },
    "effects": [],
    "flags": {},
    "img": "systems/pf2e/icons/features/feats/feats.jpg",
    "name": "Sheltering Slab",
    "permission": {
        "default": 0
    },
    "type": "feat"
}
