{
    "_id": "DpmdmRNMg6LZpNB0",
    "data": {
        "actionCategory": {
            "value": ""
        },
        "actionType": {
            "value": "passive"
        },
        "actions": {
            "value": ""
        },
        "description": {
            "chat": "",
            "unidentified": "",
            "value": "<p>As long as you meditate before a gemstone worth at least 10 gp as part of your daily preparations, you are capable of seeing magic as flowing runes that reveal information about magic objects, and you can scribe a personal rune that represents you. You gain the read aura and sigil cantrips. You cast these cantrips as arcane innate spells at will. A cantrip is heightened to a spell level equal to half your level rounded up.</p>"
        },
        "featType": {
            "value": "archetype"
        },
        "level": {
            "value": "6"
        },
        "prerequisites": {
            "value": [
                "Crystal Keeper Dedication"
            ]
        },
        "rarity": {
            "value": "common"
        },
        "rules": [],
        "source": {
            "value": ""
        },
        "traits": {
            "custom": "",
            "rarity": {
                "value": "common"
            },
            "value": [
                "archetype"
            ]
        }
    },
    "effects": [],
    "flags": {},
    "img": "systems/pf2e/icons/features/feats/feats.jpg",
    "name": "Simple Crystal Magic",
    "permission": {
        "default": 0
    },
    "type": "feat"
}
