{
    "_id": "LoeoiYOpxSaEkWKv",
    "data": {
        "actionCategory": {
            "value": ""
        },
        "actionType": {
            "value": "passive"
        },
        "actions": {
            "value": ""
        },
        "description": {
            "chat": "",
            "unidentified": "",
            "value": "<p>When you @Compendium[pf2e.actionspf2e.High Jump]{High Jump}, @Compendium[pf2e.actionspf2e.Leap]{Leap}, or @Compendium[pf2e.actionspf2e.Long Jump]{Long Jump} while wielding your staff, you gain a +2 circumstance bonus to any Athletics check required and add 5 feet to the distance you can Leap vertically and horizontally. You can @Compendium[pf2e.actionspf2e.Shove]{Shove} and @Compendium[pf2e.actionspf2e.Trip]{Trip} even if you don't have a free hand, provided you are wielding your staff. Finally, when you roll a success on a check to @Compendium[pf2e.actionspf2e.Balance]{Balance} while wielding your staff, you get a critical success instead.</p>\n<p><strong>Special</strong> You cannot select another dedication feat until you have gained two other feats from the staff acrobat archetype.</p>"
        },
        "featType": {
            "value": "archetype"
        },
        "level": {
            "value": 2
        },
        "prerequisites": [
            "Dexterity 16",
            "trained in Acrobatics",
            "trained in Athletics",
            "trained with at least one of the following weapons: staff, bo staff, halfling sling staff, or any weapon in the spear or polearm group (referred to in this archetype as \"your staff\")"
        ],
        "rarity": {
            "value": "common"
        },
        "rules": [],
        "source": {
            "value": ""
        },
        "traits": {
            "custom": "",
            "rarity": {
                "value": "common"
            },
            "value": [
                "archetype",
                "dedication"
            ]
        }
    },
    "effects": [],
    "flags": {},
    "img": "systems/pf2e/icons/features/feats/feats.jpg",
    "name": "Staff Acrobat Dedication",
    "permission": {
        "default": 0
    },
    "type": "feat"
}
