{
    "_id": "AmFv3ClkAVRowHLI",
    "data": {
        "actionCategory": {
            "value": ""
        },
        "actionType": {
            "value": "passive"
        },
        "actions": {
            "value": ""
        },
        "description": {
            "chat": "",
            "unidentified": "",
            "value": "<p>You've trained with a blade and other tengu weapons ever since you hatched. You gain access to @Compendium[pf2e.equipment-srd.Khakkara]{Khakkaras}.</p>\n<p>Additionally, choose two weapons from the sword group. You can choose from among all common martial swords, plus the @Compendium[pf2e.equipment-srd.Katana]{Katana}, @Compendium[pf2e.equipment-srd.Temple Sword]{Temple Sword}, and @Compendium[pf2e.equipment-srd.Wakizashi]{Wakizashi}. For the purpose of determining your proficiency, that weapon is a simple weapon, and if the weapon isn't common, you gain access to it. If you are trained in all martial weapons, you add common advanced swords to the swords you can choose from.</p>\n<p>You also gain access to all uncommon tengu weapons. For the purpose of determining your proficiency, martial tengu weapons are simple weapons, and advanced tengu weapons are martial weapons.</p>"
        },
        "featType": {
            "value": "ancestry"
        },
        "level": {
            "value": "1"
        },
        "prerequisites": {
            "value": [
                ""
            ]
        },
        "rarity": {
            "value": "common"
        },
        "rules": [],
        "source": {
            "value": ""
        },
        "traits": {
            "custom": "",
            "rarity": {
                "value": "common"
            },
            "value": [
                "tengu"
            ]
        }
    },
    "effects": [],
    "flags": {},
    "img": "systems/pf2e/icons/features/feats/feats.jpg",
    "name": "Tengu Weapon Familiarity",
    "permission": {
        "default": 0
    },
    "type": "feat"
}
