{
    "_id": "K5pXeeJLmdE8XuvM",
    "data": {
        "actionCategory": {
            "value": ""
        },
        "actionType": {
            "value": "passive"
        },
        "actions": {
            "value": ""
        },
        "description": {
            "chat": "",
            "unidentified": "",
            "value": "<p>You often find that the best way to win a conflict means avoiding a fight in the first place. You're good at talking to potential opponents without making things worse. If you would critically fail at a check to Make an Impression, you instead fail. You can attempt checks to make Requests of creatures who're indifferent or unfriendly toward you.</p>"
        },
        "featType": {
            "value": "archetype"
        },
        "level": {
            "value": 12
        },
        "prerequisites": [
            "Swordmaster Dedication",
            "master in Diplomacy"
        ],
        "rarity": {
            "value": "common"
        },
        "rules": [],
        "source": {
            "value": ""
        },
        "traits": {
            "custom": "",
            "rarity": {
                "value": "common"
            },
            "value": [
                "archetype"
            ]
        }
    },
    "effects": [],
    "flags": {},
    "img": "systems/pf2e/icons/features/feats/feats.jpg",
    "name": "Tense Negotiator",
    "permission": {
        "default": 0
    },
    "type": "feat"
}
