{
    "_id": "z54Jl3KRZpA2UaZV",
    "data": {
        "actionCategory": {
            "value": ""
        },
        "actionType": {
            "value": "passive"
        },
        "actions": {
            "value": ""
        },
        "description": {
            "chat": "",
            "unidentified": "",
            "value": "<p>Your Elemental Assault cycles through all four elements. When you use Elemental Assault, instead of choosing a single element, you can choose an element from the list when using the action, and then choose a different element at the beginning of each of your next 3 turns without spending an action; once you have chosen an element, you can’t choose it again during this Elemental Assault, meaning you must select all four elements over the course of 4 turns. Each time you choose an element, until the beginning of your next turn, your Strikes deal an additional [[/r 1d6]] damage of the indicated type and have the trait corresponding to that element.</p>"
        },
        "featType": {
            "value": "ancestry"
        },
        "level": {
            "value": 9
        },
        "location": "",
        "prerequisites": [
            "Elemental Assault"
        ],
        "rarity": {
            "value": "common"
        },
        "rules": [],
        "source": {
            "value": ""
        },
        "traits": {
            "custom": "",
            "rarity": {
                "value": "common"
            },
            "value": [
                "suli"
            ]
        },
        "usage": {
            "value": ""
        }
    },
    "effects": [],
    "flags": {},
    "img": "systems/pf2e/icons/features/feats/feats.jpg",
    "name": "Tetraelemental Assault",
    "permission": {
        "default": 0
    },
    "type": "feat"
}
