{
    "_id": "cxwDj2gZ7kJdP4hs",
    "data": {
        "actionCategory": {
            "value": ""
        },
        "actionType": {
            "value": "passive"
        },
        "actions": {
            "value": ""
        },
        "description": {
            "chat": "",
            "unidentified": "",
            "value": "<p>Your form is as mutable as the weather, changing to meet your whim. You add the forms listed in @Compendium[pf2e.spells-srd.Humanoid Form]{Humanoid Form} to your <em>wild shape</em> list.</p>"
        },
        "featType": {
            "value": "class"
        },
        "level": {
            "value": 4
        },
        "location": "",
        "prerequisites": [
            "wild shape"
        ],
        "rarity": {
            "value": "common"
        },
        "rules": [],
        "source": {
            "value": ""
        },
        "traits": {
            "custom": "",
            "rarity": {
                "value": "common"
            },
            "value": [
                "druid"
            ]
        }
    },
    "effects": [],
    "flags": {},
    "img": "systems/pf2e/icons/features/feats/feats.jpg",
    "name": "Thousand Faces",
    "permission": {
        "default": 0
    },
    "type": "feat"
}
