{
    "_id": "62glnJI2o0KnHULB",
    "data": {
        "actionCategory": {
            "value": ""
        },
        "actionType": {
            "value": "action"
        },
        "actions": {
            "value": "2"
        },
        "description": {
            "chat": "",
            "unidentified": "",
            "value": "<p><strong>Requirements</strong> You are in Monastic Archer Stance and wielding <br />a bow usable with that stance.</p>\n<hr />\n<p>You string three arrows to your bow and fire them all at once. Make three ranged @Compendium[pf2e.actionspf2e.Strike]{Strikes} against a single target with the required weapon, each using your current multiple attack penalty, and you take an additional -2 penalty. This counts as two attacks when calculating your multiple attack penalty, and you combine the attacks' damage for the purpose of resistances and weaknesses.</p>\n<p>Your @Compendium[pf2e.feats-srd.Stunning Fist]{Stunning Fist} benefit applies to Triangle Shot, even though it isn't a @Compendium[pf2e.actionspf2e.Flurry of Blows]{Flurry of Blows}. If all three Strikes hit, the target takes [[/r 3d6 #persistent bleed]] persistent bleed damage.</p>"
        },
        "featType": {
            "value": "class"
        },
        "level": {
            "value": 18
        },
        "prerequisites": [
            "Monastic Archer Stance",
            "Stunning Fist"
        ],
        "rarity": {
            "value": "common"
        },
        "rules": [],
        "source": {
            "value": ""
        },
        "traits": {
            "custom": "",
            "rarity": {
                "value": "common"
            },
            "value": [
                "concentrate",
                "flourish",
                "monk"
            ]
        }
    },
    "effects": [],
    "flags": {},
    "img": "systems/pf2e/icons/features/feats/feats.jpg",
    "name": "Triangle Shot",
    "permission": {
        "default": 0
    },
    "type": "feat"
}
