{
    "_id": "wKx7BWdQu5sEjL9j",
    "data": {
        "actionCategory": {
            "value": ""
        },
        "actionType": {
            "value": "action"
        },
        "actions": {
            "value": "2"
        },
        "description": {
            "chat": "",
            "unidentified": "",
            "value": "<p><strong>Requirements</strong> You are in wild winds stance</p>\n<hr />\n<p>You store up energy and release it in an enormous gust of rushing wind. Make a wind crash Strike against each creature in your choice of a 30-foot cone or a 60 foot line. These attacks all count toward your multiple attack penalty, but the penalty doesn't increase until after you make all the attacks.</p>"
        },
        "featType": {
            "value": "class"
        },
        "level": {
            "value": 14
        },
        "prerequisites": [
            "Wild Winds Initiate"
        ],
        "rarity": {
            "value": "common"
        },
        "rules": [],
        "source": {
            "value": ""
        },
        "traits": {
            "custom": "",
            "rarity": {
                "value": "common"
            },
            "value": [
                "air",
                "concentrate",
                "evocation",
                "manipulate",
                "monk"
            ]
        }
    },
    "effects": [],
    "flags": {},
    "img": "systems/pf2e/icons/features/feats/feats.jpg",
    "name": "Wild Winds Gust",
    "permission": {
        "default": 0
    },
    "type": "feat"
}
