{
    "_id": "CL8lLQJWd4N89QIm",
    "data": {
        "actionCategory": {
            "value": ""
        },
        "actionType": {
            "value": "passive"
        },
        "actions": {
            "value": ""
        },
        "description": {
            "chat": "",
            "unidentified": "",
            "value": "<p><strong>Moderate Boon</strong>: You share Erastil's sharp eye, allowing you to use a longbow in any situation.</p>\n<p>When you attack with a longbow, you can ignore the longbow's volley trait, and longbows have double the normal range increment for you.</p>"
        },
        "featType": {
            "value": "deityboon"
        },
        "level": {
            "value": "0"
        },
        "prerequisites": {
            "value": ""
        },
        "rarity": {
            "value": "common"
        },
        "rules": [],
        "source": {
            "value": ""
        },
        "traits": {
            "custom": "",
            "rarity": {
                "value": "common"
            },
            "selected": {},
            "value": []
        }
    },
    "effects": [],
    "flags": {},
    "img": "systems/pf2e/icons/deity/Erastil.png",
    "name": "Erastil - Moderate Boon",
    "permission": {
        "default": 0
    },
    "type": "feat"
}
