{
    "_id": "Xl48OsJ47oDVZAVQ",
    "data": {
        "description": {
            "value": "<p>Granted by @Compendium[pf2e.spells-srd.Primal Summons]{Primal Summons} when you select earth.</p>\n<p>The creature gains a burrow Speed of 20 feet, and reduces its land Speed by 10 feet (minimum 5 feet).</p>"
        },
        "duration": {
            "expiry": "turn-start",
            "sustained": false,
            "unit": "unlimited",
            "value": -1
        },
        "level": {
            "value": 10
        },
        "rarity": {
            "value": "common"
        },
        "rules": [
            {
                "key": "PF2E.RuleElement.TokenEffectIcon"
            },
            {
                "key": "PF2E.RuleElement.BaseSpeed",
                "selector": "burrow",
                "value": 20
            },
            {
                "key": "PF2E.RuleElement.FlatModifier",
                "selector": "land-speed",
                "value": -10
            }
        ],
        "source": {
            "value": ""
        },
        "start": {
            "initiative": null,
            "value": 0
        },
        "target": null,
        "traits": {
            "custom": "",
            "rarity": {
                "value": "common"
            },
            "value": []
        }
    },
    "effects": [],
    "flags": {},
    "img": "systems/pf2e/icons/spells/primal-summons.jpg",
    "name": "Spell Effect: Primal Summons (Earth)",
    "permission": {
        "default": 0
    },
    "type": "effect"
}
