{
    "_id": "RtWlzHaOrfFdJyJY",
    "data": {
        "abilities": {
            "cha": {
                "min": 3,
                "mod": 0,
                "value": 10
            },
            "con": {
                "min": 3,
                "mod": 9,
                "value": 10
            },
            "dex": {
                "min": 3,
                "mod": 5,
                "value": 10
            },
            "int": {
                "min": 3,
                "mod": -3,
                "value": 10
            },
            "str": {
                "min": 3,
                "mod": 10,
                "value": 10
            },
            "wis": {
                "min": 3,
                "mod": 0,
                "value": 10
            }
        },
        "attributes": {
            "ac": {
                "base": 46,
                "check": 0,
                "details": "",
                "dex": 0,
                "item": 0,
                "min": 0,
                "value": 0
            },
            "allSaves": {
                "value": ""
            },
            "bonusEncumbranceBulk": 0,
            "bonusLimitBulk": 0,
            "flatbonushp": 0,
            "flatbonussp": 0,
            "hp": {
                "details": "",
                "max": 400,
                "min": 0,
                "temp": 0,
                "value": 400
            },
            "init": {
                "bonus": 0,
                "value": 0
            },
            "initiative": {
                "ability": "",
                "circumstance": 0,
                "status": 0
            },
            "levelbonushp": 0,
            "levelbonussp": 0,
            "perception": {
                "ability": "wis",
                "base": 35,
                "item": 0,
                "rank": 0,
                "value": 0
            },
            "resolve": {
                "value": 0
            },
            "shield": {
                "ac": 0,
                "brokenThreshold": 0,
                "hardness": 0,
                "max": 0,
                "min": 0,
                "value": 0
            },
            "sp": {
                "details": "",
                "max": 0,
                "min": 0,
                "value": 0
            },
            "speed": {
                "otherSpeeds": [
                    {
                        "exceptions": "",
                        "label": "Swim",
                        "type": "swim",
                        "value": "50"
                    }
                ],
                "value": "20"
            }
        },
        "currency": {
            "cp": {
                "value": 0
            },
            "gp": {
                "value": 0
            },
            "pp": {
                "value": 0
            },
            "sp": {
                "value": 0
            }
        },
        "details": {
            "alignment": {
                "value": "NE"
            },
            "ancestry": {
                "value": ""
            },
            "biography": {
                "public": "",
                "value": ""
            },
            "class": {
                "value": ""
            },
            "creatureType": "",
            "deity": {
                "image": "systems/pf2e/assets/sheet/deity.png",
                "value": ""
            },
            "flavourText": "",
            "heritage": {
                "value": ""
            },
            "keyability": {
                "value": "str"
            },
            "level": {
                "min": 1,
                "value": 21
            },
            "nethysUrl": "",
            "recallKnowledgeText": "",
            "sidebarText": "",
            "source": {
                "value": ""
            }
        },
        "martial": {
            "advanced": {
                "rank": 0,
                "value": 0
            },
            "heavy": {
                "rank": 0,
                "value": 0
            },
            "light": {
                "rank": 0,
                "value": 0
            },
            "martial": {
                "rank": 0,
                "value": 0
            },
            "medium": {
                "rank": 0,
                "value": 0
            },
            "simple": {
                "rank": 0,
                "value": 0
            },
            "unarmed": {
                "rank": 0,
                "value": 0
            },
            "unarmored": {
                "rank": 0,
                "value": 0
            }
        },
        "saves": {
            "fortitude": {
                "ability": "con",
                "base": 37,
                "item": 0,
                "rank": 0,
                "saveDetail": "",
                "value": 0
            },
            "reflex": {
                "ability": "dex",
                "base": 32,
                "item": 0,
                "rank": 0,
                "saveDetail": "",
                "value": 0
            },
            "will": {
                "ability": "wis",
                "base": 27,
                "item": 0,
                "rank": 0,
                "saveDetail": "",
                "value": 0
            }
        },
        "schema": {
            "version": {
                "value": ""
            }
        },
        "spells": {
            "spell0": {
                "max": 0
            },
            "spell1": {
                "max": 0
            },
            "spell10": {
                "max": 0
            },
            "spell11": {
                "max": 0
            },
            "spell2": {
                "max": 0
            },
            "spell3": {
                "max": 0
            },
            "spell4": {
                "max": 0
            },
            "spell5": {
                "max": 0
            },
            "spell6": {
                "max": 0
            },
            "spell7": {
                "max": 0
            },
            "spell8": {
                "max": 0
            },
            "spell9": {
                "max": 0
            }
        },
        "statusEffects": [],
        "traits": {
            "attitude": {
                "value": "hostile"
            },
            "ci": [],
            "di": {
                "custom": "",
                "value": [
                    "disease",
                    "poison",
                    "sickened"
                ]
            },
            "dr": [
                {
                    "exceptions": "",
                    "label": "Acid",
                    "type": "acid",
                    "value": "20"
                },
                {
                    "exceptions": "",
                    "label": "Precision",
                    "type": "precision",
                    "value": "20"
                }
            ],
            "dv": [],
            "languages": {
                "custom": "",
                "selected": [],
                "value": []
            },
            "rarity": {
                "value": "common"
            },
            "senses": {
                "value": "darkvision, wavesense (imprecise) 60 feet"
            },
            "size": {
                "value": "huge"
            },
            "traits": {
                "custom": "",
                "value": [
                    "aberration"
                ]
            }
        }
    },
    "effects": [],
    "flags": {},
    "img": "systems/pf2e/icons/default-icons/npc.svg",
    "items": [
        {
            "_id": "9iJd42osxIQDHSEQ",
            "data": {
                "description": {
                    "value": ""
                },
                "item": {
                    "value": 0
                },
                "mod": {
                    "value": 39
                },
                "proficient": {
                    "value": 0
                },
                "rarity": {
                    "value": "common"
                },
                "rules": [],
                "slug": null,
                "source": {
                    "value": ""
                },
                "traits": {
                    "custom": "",
                    "rarity": {
                        "value": "common"
                    },
                    "value": []
                }
            },
            "effects": [],
            "flags": {},
            "name": "Athletics",
            "sort": 100000,
            "type": "lore"
        },
        {
            "_id": "00AnAb9FZBwVZGjI",
            "data": {
                "attack": {
                    "value": ""
                },
                "attackEffects": {
                    "custom": "",
                    "value": [
                        "Grab"
                    ]
                },
                "bonus": {
                    "value": 39
                },
                "brokenThreshold": {
                    "value": 0
                },
                "bulkCapacity": {
                    "value": ""
                },
                "collapsed": {
                    "value": false
                },
                "containerId": {
                    "value": ""
                },
                "damageRolls": {
                    "zzc4u2rncjalwerj7egv58": {
                        "damage": "4d8+18",
                        "damageType": "bludgeoning"
                    },
                    "a8tl5yoxl4osfvbb1k5fx": {
                        "damage": "2d6",
                        "damageType": "acid"
                    }
                },
                "description": {
                    "value": ""
                },
                "equipped": {
                    "value": false
                },
                "equippedBulk": {
                    "value": ""
                },
                "hardness": {
                    "value": 0
                },
                "hp": {
                    "value": 0
                },
                "identification": {
                    "status": "identified"
                },
                "identified": {
                    "value": true
                },
                "invested": {
                    "value": false
                },
                "maxHp": {
                    "value": 0
                },
                "negateBulk": {
                    "value": "0"
                },
                "preciousMaterial": {
                    "value": ""
                },
                "preciousMaterialGrade": {
                    "value": ""
                },
                "price": {
                    "value": 0
                },
                "quantity": {
                    "value": 1
                },
                "rarity": {
                    "value": "common"
                },
                "rules": [],
                "size": {
                    "value": "med"
                },
                "slug": null,
                "source": {
                    "value": ""
                },
                "stackGroup": {
                    "value": ""
                },
                "traits": {
                    "custom": "",
                    "rarity": {
                        "value": "common"
                    },
                    "value": [
                        "acid",
                        "magical",
                        "reach-10"
                    ]
                },
                "weaponType": {
                    "value": "melee"
                },
                "weight": {
                    "value": 0
                }
            },
            "effects": [],
            "flags": {},
            "img": "icons/svg/mystery-man.svg",
            "name": "Jaws",
            "sort": 200000,
            "type": "melee"
        },
        {
            "_id": "YEhIEhTt74V6zF2F",
            "data": {
                "attack": {
                    "value": ""
                },
                "attackEffects": {
                    "value": []
                },
                "bonus": {
                    "value": 37
                },
                "brokenThreshold": {
                    "value": 0
                },
                "bulkCapacity": {
                    "value": ""
                },
                "collapsed": {
                    "value": false
                },
                "containerId": {
                    "value": ""
                },
                "damageRolls": {
                    "7wz9mfp1hbmi36ve1p5if": {
                        "damage": "4d10+18",
                        "damageType": "bludgeoning"
                    },
                    "f9i9wp3qvblnzg3x1c6b": {
                        "damage": "2d6",
                        "damageType": "acid"
                    }
                },
                "description": {
                    "value": ""
                },
                "equipped": {
                    "value": false
                },
                "equippedBulk": {
                    "value": ""
                },
                "hardness": {
                    "value": 0
                },
                "hp": {
                    "value": 0
                },
                "identification": {
                    "status": "identified"
                },
                "identified": {
                    "value": true
                },
                "invested": {
                    "value": false
                },
                "maxHp": {
                    "value": 0
                },
                "negateBulk": {
                    "value": "0"
                },
                "preciousMaterial": {
                    "value": ""
                },
                "preciousMaterialGrade": {
                    "value": ""
                },
                "price": {
                    "value": 0
                },
                "quantity": {
                    "value": 1
                },
                "rarity": {
                    "value": "common"
                },
                "rules": [],
                "size": {
                    "value": "med"
                },
                "slug": null,
                "source": {
                    "value": ""
                },
                "stackGroup": {
                    "value": ""
                },
                "traits": {
                    "custom": "",
                    "rarity": {
                        "value": "common"
                    },
                    "value": [
                        "acid",
                        "magical",
                        "reach-15"
                    ]
                },
                "weaponType": {
                    "value": "melee"
                },
                "weight": {
                    "value": 0
                }
            },
            "effects": [],
            "flags": {},
            "img": "icons/svg/mystery-man.svg",
            "name": "Pseudopod",
            "sort": 300000,
            "type": "melee"
        },
        {
            "_id": "kEiDcm42Prsww2ja",
            "data": {
                "actionCategory": {
                    "value": ""
                },
                "actionType": {
                    "value": "reaction"
                },
                "actions": {
                    "value": ""
                },
                "description": {
                    "value": "<p><strong>Trigger</strong> The alchemical horror takes damage from an alchemical bomb;</p>\n<p><strong>Effect</strong> The volatile substances that compose the alchemical horror froth outward as they react with the bomb. The bomb’s full effects affect creatures in every space within 15 feet of the alchemical horror, and splash damage affects creatures 5 feet beyond that.</p>"
                },
                "rarity": {
                    "value": "common"
                },
                "requirements": {
                    "value": ""
                },
                "rules": [],
                "slug": null,
                "source": {
                    "value": ""
                },
                "traits": {
                    "custom": "",
                    "rarity": {
                        "value": "common"
                    },
                    "value": []
                },
                "trigger": {
                    "value": ""
                },
                "weapon": {
                    "value": ""
                }
            },
            "effects": [],
            "flags": {},
            "img": "systems/pf2e/icons/actions/Reaction.png",
            "name": "Alchemical Reaction",
            "sort": 400000,
            "type": "action"
        },
        {
            "_id": "F0wNdQAwukZzTRRS",
            "data": {
                "actionCategory": {
                    "value": ""
                },
                "actionType": {
                    "value": "action"
                },
                "actions": {
                    "value": "2"
                },
                "description": {
                    "value": "<p>The alchemical horror spews a torrent of alchemical fluids in a 30-foot cone that deals [[/r 20d6 #acid damage]] acid damage to creatures in the area (DC 43 basic Reflex save). The alchemical horror can’t use this ability again for [[/r 1d4]] rounds.</p>"
                },
                "rarity": {
                    "value": "common"
                },
                "requirements": {
                    "value": ""
                },
                "rules": [],
                "slug": null,
                "source": {
                    "value": ""
                },
                "traits": {
                    "custom": "",
                    "rarity": {
                        "value": "common"
                    },
                    "value": [
                        "acid",
                        "evocation",
                        "primal"
                    ]
                },
                "trigger": {
                    "value": ""
                },
                "weapon": {
                    "value": ""
                }
            },
            "effects": [],
            "flags": {},
            "img": "systems/pf2e/icons/actions/TwoActions.png",
            "name": "Alchemical Torrent",
            "sort": 500000,
            "type": "action"
        },
        {
            "_id": "wEBGekytPBYL264b",
            "data": {
                "actionCategory": {
                    "value": ""
                },
                "actionType": {
                    "value": "action"
                },
                "actions": {
                    "value": "1"
                },
                "description": {
                    "value": "<p>Large, 4d12+18 bludgeoning, Rupture 40</p>"
                },
                "rarity": {
                    "value": "common"
                },
                "requirements": {
                    "value": ""
                },
                "rules": [],
                "slug": null,
                "source": {
                    "value": ""
                },
                "traits": {
                    "custom": "",
                    "rarity": {
                        "value": "common"
                    },
                    "value": [
                        "attack"
                    ]
                },
                "trigger": {
                    "value": ""
                },
                "weapon": {
                    "value": ""
                }
            },
            "effects": [],
            "flags": {},
            "img": "systems/pf2e/icons/actions/OneAction.png",
            "name": "Swallow Whole",
            "sort": 600000,
            "type": "action"
        }
    ],
    "name": "Alchemical Horror",
    "permission": {
        "default": 0
    },
    "token": {
        "actorId": "RtWlzHaOrfFdJyJY",
        "actorLink": false,
        "bar1": {
            "attribute": "attributes.hp"
        },
        "bar2": {
            "attribute": ""
        },
        "brightLight": 0,
        "brightSight": 0,
        "dimLight": 0,
        "dimSight": 0,
        "displayBars": 20,
        "displayName": 20,
        "disposition": -1,
        "flags": {
            "token-auras": {
                "aura1": {
                    "colour": "#ffffff",
                    "distance": null,
                    "opacity": 0.5,
                    "square": false
                },
                "aura2": {
                    "colour": "#ffffff",
                    "distance": null,
                    "opacity": 0.5,
                    "square": false
                }
            }
        },
        "height": 3,
        "img": "systems/pf2e/icons/default-icons/npc.svg",
        "lightAlpha": 1,
        "lightAngle": 360,
        "lightAnimation": {
            "intensity": 5,
            "speed": 5,
            "type": ""
        },
        "lightColor": "",
        "lockRotation": false,
        "mirrorX": false,
        "mirrorY": false,
        "name": "Alchemical Horror",
        "randomImg": false,
        "rotation": 0,
        "scale": 1,
        "sightAngle": 360,
        "tint": "",
        "vision": false,
        "width": 3
    },
    "type": "npc"
}
