{
    "_id": "QHcBauLnHzfwkDBK",
    "data": {
        "attributes": {
            "ac": {
                "value": 10
            },
            "hardness": 0,
            "hasHealth": false,
            "hp": {
                "details": "",
                "max": 0,
                "temp": 0,
                "tempmax": 0,
                "value": 0
            },
            "stealth": {
                "details": "(trained)",
                "value": 12
            }
        },
        "creatureType": "",
        "details": {
            "description": "An invisible cloud of magical sensors detects living creatures in the room and summons fire elementals to slay the creatures.",
            "disable": "DC 22 Acrobatics (trained) to approach without triggering the trap, followed by DC 22 Thievery (trained) to erase the rune or <i>dispel magic</i> (3rd level; counteract DC 20) to counteract the rune",
            "isComplex": true,
            "level": 5,
            "reset": "The trap resets each day at dawn.",
            "routine": ""
        },
        "flavourText": "",
        "nethysUrl": "",
        "recallKnowledgeText": "",
        "saves": {
            "fortitude": {
                "rank": 0,
                "saveDetail": "",
                "value": 0
            },
            "reflex": {
                "rank": 0,
                "saveDetail": "",
                "value": 0
            },
            "will": {
                "rank": 0,
                "saveDetail": "",
                "value": 0
            }
        },
        "schema": {
            "version": {
                "value": ""
            }
        },
        "sidebarText": "",
        "source": {
            "value": ""
        },
        "statusEffects": [],
        "traits": {
            "ci": [],
            "di": {
                "custom": "",
                "selected": {},
                "value": []
            },
            "dr": [],
            "dv": [],
            "traits": {
                "custom": "",
                "value": [
                    "magical"
                ]
            }
        }
    },
    "effects": [],
    "flags": {},
    "img": "systems/pf2e/icons/default-icons/hazard.svg",
    "items": [
        {
            "_id": "oXzm9KqLtbgKvm14",
            "data": {
                "actionCategory": {
                    "value": ""
                },
                "actionType": {
                    "value": "reaction"
                },
                "actions": {
                    "value": ""
                },
                "description": {
                    "chat": "",
                    "unidentified": "",
                    "value": "<p><strong>Trigger</strong> A living creature enters the room; <strong>Effect</strong> Two rounds after a creature enters the room, the room's door slams shut and locks (two DC 20 Thievery checks to pick), and two cinder rat fire elementals (<i>Pathfinder Bestiary</i> 148) emerge from the floor. The elementals roll initiative and remain for 3d6 rounds, after which the spell ends and the creatures disappear. The elementals also disappear if someone disables the trap before the duration expires. The summoned elementals can use 3 actions each round and can use reactions, unlike most summoned creatures.</p>"
                },
                "rarity": {
                    "value": "common"
                },
                "requirements": {
                    "value": ""
                },
                "rules": [],
                "source": {
                    "value": ""
                },
                "traits": {
                    "custom": "",
                    "rarity": {
                        "value": "common"
                    },
                    "value": [
                        "arcane",
                        "conjuration",
                        "summon"
                    ]
                },
                "trigger": {
                    "value": ""
                },
                "usage": {
                    "value": "held-in-one-hand"
                },
                "weapon": {
                    "value": ""
                }
            },
            "effects": [],
            "flags": {},
            "img": "systems/pf2e/icons/actions/Reaction.png",
            "name": "Summon Elementals",
            "type": "action"
        }
    ],
    "name": "Summoning Rune (Cinder Rat)",
    "permission": {
        "default": 0
    },
    "token": {
        "actorData": {},
        "actorId": "QHcBauLnHzfwkDBK",
        "actorLink": false,
        "bar1": {
            "attribute": "attributes.hp"
        },
        "bar2": {},
        "brightLight": 0,
        "brightSight": 0,
        "dimLight": 0,
        "dimSight": 0,
        "displayBars": 20,
        "displayName": 20,
        "disposition": -1,
        "flags": {},
        "height": 1,
        "img": "systems/pf2e/icons/default-icons/hazard.svg",
        "lightAlpha": 1,
        "lightAngle": 360,
        "lockRotation": false,
        "name": "Summoning Rune",
        "randomImg": false,
        "rotation": 0,
        "scale": 1,
        "sightAngle": 360,
        "tint": null,
        "vision": false,
        "width": 1
    },
    "type": "hazard"
}
