{
    "_id": "gblTFUOgolqFS9v4",
    "data": {
        "actionCategory": {
            "value": ""
        },
        "actionType": {
            "value": "passive"
        },
        "actions": {
            "value": ""
        },
        "description": {
            "chat": "",
            "unidentified": "",
            "value": "<p>Through your deity's blessing, you gain additional spells that channel either the life force called positive energy or its counterforce, negative energy. When you prepare your spells each day, you can prepare additional @Compendium[pf2e.spells-srd.Heal]{Heal} or @Compendium[pf2e.spells-srd.Harm]{Harm} spells, depending on your deity. The divine font spell your deity provides is listed in the Divine Font entry for your deity on pages 437-440; if both are listed, you can choose between<em>heal</em>or<em>harm</em>. Once you choose, you can't change your choice short of an ethical shift or divine intervention.<br /></p>\n<p><strong>Healing Font</strong>: You gain additional spell slots each day at your highest level of cleric spell slots. You can prepare only<em>heal</em>spells (page 343) in these slots, and the number of slots is equal to 1 plus your Charisma modifier.<br /></p>\n<p><strong>Harmful Font</strong>: You gain additional spell slots each day at your highest level of cleric spell slots. You can prepare only<em>harm</em>spells (page 343) in these slots, and the number of slots is equal to 1 plus your Charisma modifier.</p>"
        },
        "featType": {
            "value": "classfeature"
        },
        "level": {
            "value": "1"
        },
        "prerequisites": {
            "value": ""
        },
        "rarity": {
            "value": "common"
        },
        "rules": [],
        "source": {
            "value": ""
        },
        "traits": {
            "custom": "",
            "rarity": {
                "value": "common"
            },
            "value": [
                "cleric"
            ]
        }
    },
    "effects": [],
    "flags": {},
    "img": "systems/pf2e/icons/features/classes/divine-font.jpg",
    "name": "Divine Font",
    "permission": {
        "default": 0
    },
    "type": "feat"
}
