{
    "_id": "Jgid6Ja6Y879COlN",
    "data": {
        "actionCategory": {
            "value": ""
        },
        "actionType": {
            "value": "passive"
        },
        "actions": {
            "value": ""
        },
        "description": {
            "chat": "",
            "unidentified": "",
            "value": "<p>You move carefully, feinting and creating false openings to lead your foes into inopportune attacks. You are trained in Deception. You gain @Compendium[pf2e.classfeatures.Panache]{Panache} during an encounter whenever you successfully @Compendium[pf2e.actionspf2e.Feint]{Feint} or @Compendium[pf2e.actionspf2e.Create a Diversion]{Create a Diversion} against a foe.</p>"
        },
        "featType": {
            "value": "classfeature"
        },
        "level": {
            "value": 1
        },
        "location": "",
        "prerequisites": {
            "value": ""
        },
        "rarity": {
            "value": "common"
        },
        "rules": [
            {
                "key": "PF2E.RuleElement.FlatModifier",
                "predicate": {
                    "all": [
                        "panache"
                    ],
                    "any": [
                        "action:feint",
                        "action:create-a-diversion"
                    ]
                },
                "selector": "deception",
                "type": "circumstance",
                "value": 1
            }
        ],
        "source": {
            "value": ""
        },
        "traits": {
            "custom": "",
            "rarity": {
                "value": "common"
            },
            "value": [
                "swashbuckler"
            ]
        }
    },
    "effects": [
        {
            "_id": "uPj4gFD9sGn0FcAp",
            "changes": [
                {
                    "key": "data.skills.dec.rank",
                    "mode": 4,
                    "value": 1
                }
            ],
            "disabled": false,
            "duration": {
                "rounds": null,
                "seconds": null,
                "startRound": null,
                "startTime": null,
                "startTurn": null,
                "turns": null
            },
            "flags": {},
            "icon": "systems/pf2e/icons/features/classes/fencer-style.jpg",
            "label": "Fencer Style",
            "origin": "",
            "tint": "",
            "transfer": true
        }
    ],
    "flags": {},
    "img": "systems/pf2e/icons/features/classes/fencer-style.jpg",
    "name": "Fencer Style",
    "permission": {
        "default": 0
    },
    "type": "feat"
}
