{
    "_id": "7MhzrbOyue5GQsck",
    "data": {
        "actionCategory": {
            "value": ""
        },
        "actionType": {
            "value": "passive"
        },
        "actions": {
            "value": ""
        },
        "description": {
            "chat": "",
            "unidentified": "",
            "value": "<p>Your instinct heightens each of your senses further. Your proficiency rank for Perception increases to master.</p>"
        },
        "featType": {
            "value": "classfeature"
        },
        "level": {
            "value": "17"
        },
        "prerequisites": {
            "value": ""
        },
        "rarity": {
            "value": "common"
        },
        "rules": [],
        "source": {
            "value": ""
        },
        "traits": {
            "custom": "",
            "rarity": {
                "value": "common"
            },
            "value": [
                "barbarian"
            ]
        }
    },
    "effects": [
        {
            "_id": "tEZ5iAssfpPAWpxX",
            "changes": [
                {
                    "key": "data.attributes.perception.rank",
                    "mode": 4,
                    "value": 3
                }
            ],
            "disabled": false,
            "duration": {
                "rounds": null,
                "seconds": null,
                "startRound": null,
                "startTime": null,
                "startTurn": null,
                "turns": null
            },
            "flags": {},
            "icon": "systems/pf2e/icons/features/classes/heightened-senses.jpg",
            "label": "Heightened Senses",
            "origin": "",
            "tint": "",
            "transfer": true
        }
    ],
    "flags": {},
    "img": "systems/pf2e/icons/features/classes/heightened-senses.jpg",
    "name": "Heightened Senses",
    "permission": {
        "default": 0
    },
    "type": "feat"
}
