{
    "_id": "rJpkKaPRGaH0pLse",
    "data": {
        "description": {
            "chat": "",
            "unidentified": "",
            "value": "<p>Colorful fey glamours dance around you or one target, causing them to be concealed for 1 round. Such obvious concealment can't be used to Hide.</p>"
        },
        "duration": {
            "expiry": "turn-start",
            "sustained": false,
            "unit": "rounds",
            "value": 1
        },
        "level": {
            "value": 1
        },
        "rarity": {
            "value": "common"
        },
        "rules": [
            {
                "key": "PF2E.RuleElement.TokenEffectIcon"
            }
        ],
        "source": {
            "value": ""
        },
        "start": {
            "initiative": null,
            "value": 0
        },
        "traits": {
            "custom": "",
            "rarity": {
                "value": "common"
            },
            "value": []
        }
    },
    "effects": [],
    "flags": {},
    "img": "systems/pf2e/icons/features/classes/fey.jpg",
    "name": "Effect: Fey Blood Magic",
    "permission": {
        "default": 0
    },
    "type": "effect"
}
