{
    "_id": "iL6TujgTCtRRa0Y0",
    "data": {
        "ability": {
            "value": ""
        },
        "area": {
            "areaType": "",
            "value": null
        },
        "areasize": {
            "value": ""
        },
        "components": {
            "value": "somatic, verbal"
        },
        "cost": {
            "value": ""
        },
        "damage": {
            "applyMod": false,
            "value": ""
        },
        "damageType": {
            "value": ""
        },
        "description": {
            "chat": "",
            "unidentified": "",
            "value": "<p>You create an opaque wall of shimmering, multicolored light. The wall is straight and vertical, stretching 60 feet long and 30 feet high. You must form the wall in an unbroken open space so its edges don't pass through any creatures or objects, or the spell is lost. You can pass through the wall and ignore its effects. The wall sheds bright light out to 20 feet on each side (and dim light to the next 20 feet). Creatures other than you that come into the wall's light must attempt a Will save; they're @Compendium[pf2e.conditionitems.Dazzled]{Dazzled} for 1 round on a success, @Compendium[pf2e.conditionitems.Blinded]{Blinded} for 1 round on a failure, and Blinded for 1 minute on a critical failure. They are then temporarily immune to the blinding effect for 1 hour.</p>\n<p>A prismatic wall has seven different layers, each a different color. Red, orange, yellow, and green have the effect of a 5th-level @Compendium[pf2e.spells-srd.Chromatic Wall]{Chromatic Wall} spell of that color, and the others have the effect of a 7th-level Chromatic Wall spell of that color. A creature that tries to pass through the wall must attempt a saving throw against each component wall. The effects take place simultaneously, so a creature turned to stone by the blue wall is still treated as a creature for the indigo and violet walls.</p>\n<p>The wall as a whole is immune to counteracting effects of the wall's level or lower; each color must be counteracted by its specific spell, as described in chromatic wall. This must be done in order (red, orange, yellow, green, blue, indigo, then violet). A given color can't be affected until the previous color is counteracted. Counteracting a color wall removes that color's effect from the wall, and counteracting them all ends prismatic wall. You can Dismiss the spell.</p>"
        },
        "duration": {
            "value": "1 hour"
        },
        "hasCounteractCheck": {
            "value": false
        },
        "level": {
            "value": 8
        },
        "location": {
            "value": ""
        },
        "materials": {
            "value": ""
        },
        "prepared": {
            "value": ""
        },
        "primarycheck": {
            "value": ""
        },
        "range": {
            "value": "120 feet"
        },
        "rarity": {
            "value": "common"
        },
        "rules": [],
        "save": {
            "basic": "",
            "value": ""
        },
        "scaling": {
            "formula": "",
            "mode": "none"
        },
        "school": {
            "value": "abj"
        },
        "secondarycasters": {
            "value": ""
        },
        "secondarycheck": {
            "value": ""
        },
        "source": {
            "value": ""
        },
        "spellCategorie": {
            "value": "spell"
        },
        "spellCategory": {
            "value": ""
        },
        "spellType": {
            "value": "utility"
        },
        "sustained": {
            "value": false
        },
        "target": {
            "value": ""
        },
        "time": {
            "value": "2"
        },
        "traditions": {
            "value": [
                "arcane",
                "occult"
            ]
        },
        "traits": {
            "custom": "",
            "rarity": {
                "value": "common"
            },
            "value": [
                "abjuration",
                "light"
            ]
        }
    },
    "effects": [],
    "flags": {},
    "img": "systems/pf2e/icons/spells/prismatic-wall.jpg",
    "name": "Prismatic Wall",
    "permission": {
        "default": 0
    },
    "type": "spell"
}
