{
    "_id": "CxpFy4HJHf4ACbxF",
    "data": {
        "ability": {
            "value": ""
        },
        "area": {
            "value": ""
        },
        "areasize": {
            "value": ""
        },
        "components": {
            "value": "somatic, verbal"
        },
        "cost": {
            "value": ""
        },
        "damage": {
            "applyMod": false,
            "value": ""
        },
        "damageType": {
            "value": ""
        },
        "description": {
            "chat": "",
            "unidentified": "",
            "value": "<p><span>You cause otherwise edible food to rot and spoil instantly, and water and other liquids to become brackish and undrinkable. @Compendium[pf2e.equipment-srd.Holy Water]{Holy Water}, @Compendium[pf2e.equipment-srd.Unholy Water]{Unholy Water}, and similar food and drink of significance are spoiled by this spell, unless they are associated with a deity of decay or putrefaction, but it has no effect on creatures of any type, potions, or alchemical elixirs. One cubic foot of liquid is roughly 8 gallons. </span></p>\n<hr />\n<p><strong>Heightened (2nd)</strong> You can target an alchemical elixir with this spell, attempting a counteract check against it. If you succeed, the elixir spoils and becomes a mundane item.</p>\n<p><strong>Heightened (3rd)</strong> You can target a potion or alchemical elixir with this spell, attempting a counteract check against it. If you succeed, the elixir or potion spoils and becomes a mundane item.</p>"
        },
        "duration": {
            "value": ""
        },
        "hasCounteractCheck": {
            "value": true
        },
        "level": {
            "value": 1
        },
        "location": {
            "value": "Aq01kMb7yAj1VxPX"
        },
        "materials": {
            "value": ""
        },
        "prepared": {
            "value": ""
        },
        "primarycheck": {
            "value": ""
        },
        "range": {
            "value": "touch"
        },
        "rarity": {
            "value": "common"
        },
        "rules": [],
        "save": {
            "basic": "",
            "value": ""
        },
        "scaling": {
            "formula": "",
            "mode": "none"
        },
        "school": {
            "value": "nec"
        },
        "secondarycasters": {
            "value": ""
        },
        "secondarycheck": {
            "value": ""
        },
        "source": {
            "value": ""
        },
        "spellCategorie": {
            "value": "spell"
        },
        "spellCategory": {
            "value": ""
        },
        "spellType": {
            "value": "attack"
        },
        "sustained": {
            "value": false
        },
        "target": {
            "value": "1 cubic foot of clean food or water"
        },
        "time": {
            "value": "2"
        },
        "traditions": {
            "custom": "",
            "value": [
                "divine",
                "primal"
            ]
        },
        "traits": {
            "custom": "",
            "rarity": {
                "value": "common"
            },
            "selected": {
                "necromancy": "Necromancy"
            },
            "value": [
                "necromancy"
            ]
        }
    },
    "effects": [],
    "flags": {},
    "img": "systems/pf2e/icons/spells/putrefy-food-and-drink.jpg",
    "name": "Putrefy Food and Drink",
    "permission": {
        "default": 0
    },
    "type": "spell"
}
