{
    "_id": "FedTjedva2rYk33r",
    "data": {
        "ability": {
            "value": ""
        },
        "area": {
            "areaType": "",
            "value": null
        },
        "areasize": {
            "value": ""
        },
        "components": {
            "value": "somatic"
        },
        "cost": {
            "value": ""
        },
        "damage": {
            "applyMod": false,
            "value": ""
        },
        "damageType": {
            "value": ""
        },
        "description": {
            "chat": "",
            "unidentified": "",
            "value": "<p><span>You instill within a creature the touch of the grave. For the duration, @Compendium[pf2e.spells-srd.Harm]{Harm} spells treat the creature as undead and @Compendium[pf2e.spells-srd.Heal]{Heal} </span><span>spells treat the creature as living. In addition, harm spells gain a +2 status bonus to the Hit Points restored to the target.<br /></span></p>\n<p>If the target wishes to avoid the spell, it can attempt a Will save to reduce the effects.</p>\n<hr />\n<p><span><strong>Critical Success</strong> The target is unaffected.</span></p>\n<p><span><strong>Success</strong> The target heals half as much from <em>heal</em> and takes half as much damage from <em>harm</em> for 1 round.</span></p>\n<p><span><strong>Failure</strong> Effects as described in the text.</span></p>\n<hr />\n<p><strong>Heightened (+1)</strong> The status bonus to the Hit Points restored increases by 2.</p>"
        },
        "duration": {
            "value": "1 minute"
        },
        "hasCounteractCheck": {
            "value": false
        },
        "level": {
            "value": 1
        },
        "location": {
            "value": ""
        },
        "materials": {
            "value": ""
        },
        "prepared": {
            "value": ""
        },
        "primarycheck": {
            "value": ""
        },
        "range": {
            "value": "touch"
        },
        "rarity": {
            "value": "common"
        },
        "rules": [],
        "save": {
            "basic": "",
            "value": "will"
        },
        "scaling": {
            "formula": "",
            "mode": "none"
        },
        "school": {
            "value": "nec"
        },
        "secondarycasters": {
            "value": ""
        },
        "secondarycheck": {
            "value": ""
        },
        "source": {
            "value": ""
        },
        "spellCategorie": {
            "value": "focus"
        },
        "spellCategory": {
            "value": ""
        },
        "spellType": {
            "value": "save"
        },
        "sustained": {
            "value": false
        },
        "target": {
            "value": "1 living creature touched"
        },
        "time": {
            "value": "1"
        },
        "traditions": {
            "custom": "",
            "value": [
                "focus"
            ]
        },
        "traits": {
            "custom": "",
            "rarity": {
                "value": "uncommon"
            },
            "value": [
                "necromancy",
                "negative",
                "sorcerer"
            ]
        }
    },
    "effects": [],
    "flags": {},
    "img": "systems/pf2e/icons/spells/undeaths-blessing.jpg",
    "name": "Undeath's Blessing",
    "permission": {
        "default": 0
    },
    "type": "spell"
}
