{
    "_id": "Wi2HcreCfujKiCvW",
    "data": {
        "ability": {
            "value": ""
        },
        "area": {
            "value": ""
        },
        "areasize": {
            "value": "up to two 5-foot bursts that don't overlap"
        },
        "components": {
            "value": "somatic, verbal"
        },
        "cost": {
            "value": ""
        },
        "damage": {
            "applyMod": false,
            "value": "5d6"
        },
        "damageType": {
            "value": "fire"
        },
        "description": {
            "chat": "",
            "unidentified": "",
            "value": "<p>You call forth a storm of whirling flames, engulfing all creatures in that area and dealing [[/r 5d6 #fire]] fire damage with a basic Reflex save.</p>\n<hr />\n<p><strong>Heightened (+2)</strong> The damage increases by [[/r 3d6 #fire]], and you can add another non-overlapping 5-foot burst to the area.</p>"
        },
        "duration": {
            "value": ""
        },
        "hasCounteractCheck": {
            "value": false
        },
        "level": {
            "value": 3
        },
        "location": {
            "value": ""
        },
        "materials": {
            "value": ""
        },
        "prepared": {
            "value": ""
        },
        "primarycheck": {
            "value": ""
        },
        "range": {
            "value": "30 feet"
        },
        "rarity": {
            "value": "common"
        },
        "rules": [],
        "save": {
            "basic": "basic",
            "value": "reflex"
        },
        "scaling": {
            "formula": "3d6",
            "mode": "level2"
        },
        "school": {
            "value": "evo"
        },
        "secondarycasters": {
            "value": ""
        },
        "secondarycheck": {
            "value": ""
        },
        "source": {
            "value": ""
        },
        "spellCategorie": {
            "value": "focus"
        },
        "spellCategory": {
            "value": ""
        },
        "spellType": {
            "value": "save"
        },
        "sustained": {
            "value": false
        },
        "target": {
            "value": ""
        },
        "time": {
            "value": "2"
        },
        "traditions": {
            "value": []
        },
        "traits": {
            "custom": "",
            "rarity": {
                "value": "uncommon"
            },
            "value": [
                "evocation",
                "fire",
                "oracle"
            ]
        }
    },
    "effects": [],
    "flags": {},
    "img": "systems/pf2e/icons/spells/whirling-flames.jpg",
    "name": "Whirling Flames",
    "permission": {
        "default": 0
    },
    "type": "spell"
}
