{
    "_id": "GdN5YQE47gd79k7X",
    "data": {
        "ability": {
            "value": ""
        },
        "area": {
            "value": ""
        },
        "areasize": {
            "value": ""
        },
        "components": {
            "value": "Verbal"
        },
        "cost": {
            "value": ""
        },
        "damage": {
            "applyMod": false,
            "value": ""
        },
        "damageType": {
            "value": ""
        },
        "description": {
            "chat": "",
            "unidentified": "",
            "value": "<p>With a few words, you convince a wild creature you are a kindred spirit, making it reluctant to harm you. The target must attempt a Will save. Regardless of the outcome, the target is then temporarily immune for 1 minute.</p>\n<hr />\n<p><strong>Critical Success</strong>: The target is unaffected.</p>\n<p><strong>Success</strong>: When the target attempts an attack roll or skill check that would harm you, it takes a -2 status penalty to its roll.</p>\n<p><strong>Failure</strong>: As success, but the target also becomes @Compendium[pf2e.conditionitems.Sickened]{Sickened 1} each time it damages you.</p>\n<p><strong>Critical Failure</strong>: As success, but the target also becomes @Compendium[pf2e.conditionitems.Sickened]{Sickened 2} each time it damages you.</p>"
        },
        "duration": {
            "value": "Sustained up to 1 minute"
        },
        "hasCounteractCheck": {
            "value": false
        },
        "level": {
            "value": 0
        },
        "location": {
            "value": "gj8uSdGt5Fbk1fGz"
        },
        "materials": {
            "value": ""
        },
        "prepared": {
            "value": ""
        },
        "primarycheck": {
            "value": ""
        },
        "range": {
            "value": "30 feet"
        },
        "rarity": {
            "value": "common"
        },
        "rules": [],
        "save": {
            "basic": "",
            "value": "will"
        },
        "scaling": {
            "formula": "",
            "mode": "none"
        },
        "school": {
            "value": "enc"
        },
        "secondarycasters": {
            "value": ""
        },
        "secondarycheck": {
            "value": ""
        },
        "source": {
            "value": ""
        },
        "spellCategorie": {
            "value": "focus"
        },
        "spellCategory": {
            "value": ""
        },
        "spellType": {
            "value": "save"
        },
        "sustained": {
            "value": false
        },
        "target": {
            "value": "1 animal, fungus, or plant"
        },
        "time": {
            "value": "1"
        },
        "traditions": {
            "value": []
        },
        "traits": {
            "custom": "Hex",
            "rarity": {
                "value": "uncommon"
            },
            "selected": {
                "custom": "",
                "enchantment": "Enchantment",
                "witch": "Witch"
            },
            "value": [
                "cantrip",
                "enchantment",
                "witch",
                "hex"
            ]
        }
    },
    "effects": [],
    "flags": {},
    "img": "systems/pf2e/icons/spells/wilding-word.jpg",
    "name": "Wilding Word",
    "permission": {
        "default": 0
    },
    "type": "spell"
}
