{
    "_id": "bcsusUErwGQYHj6d",
    "data": {
        "actionCategory": {
            "value": ""
        },
        "actionType": {
            "value": "passive"
        },
        "actions": {
            "value": ""
        },
        "description": {
            "chat": "",
            "unidentified": "",
            "value": "<p><strong>[Slotless][Social]</strong></p>\n<p><strong>Requirement</strong>: Tier 0 with any faction</p>\n<p><strong>Cost</strong>: 2 Fame</p>\n<p><strong>Effect</strong>: You consider yourself a member of multiple cultures-whether by birth, upbringing, or long-term exposure-and you have learned to blend several of the cultures' styles into your training as an adventurer. Choose an additional ethnicity, such as Varisian or Garundi. In addition to the ethnicity you selected at character creation, you are also treated as a member of this additional ethnicity for the purpose of fulfilling prerequisites and Access conditions.</p>\n<p><strong>Normal</strong>: When creating a character, you can choose one ethnicity to can serve as a prerequisite and Access condition for character options. This affects only the character options you can select, not your character's story or identity.</p>\n<p><strong>Special</strong>: You can purchase this boon multiple times. The second time you purchase it, the cost increases to 12 Fame, and subsequent purchases cost 20 Fame each.</p>"
        },
        "featType": {
            "value": "pfsboon"
        },
        "level": {
            "value": "0"
        },
        "prerequisites": {
            "value": ""
        },
        "rarity": {
            "value": "common"
        },
        "rules": [],
        "source": {
            "value": ""
        },
        "traits": {
            "custom": "",
            "rarity": {
                "value": "common"
            },
            "selected": {},
            "value": []
        }
    },
    "effects": [],
    "flags": {},
    "img": "systems/pf2e/icons/default-icons/mystery-man.png",
    "name": "Multicultural Training",
    "permission": {
        "default": 0
    },
    "type": "feat"
}
