{
    "_id": "opaFl76Nbz1dITLz",
    "data": {
        "actionCategory": {
            "value": ""
        },
        "actionType": {
            "value": "passive"
        },
        "actions": {
            "value": ""
        },
        "description": {
            "chat": "",
            "unidentified": "",
            "value": "<p><strong>[Slotless][Social]</strong></p>\n<p><strong>Prerequisites</strong>: Tier 0 with any faction</p>\n<p><strong>Cost</strong>: 2 Fame</p>\n<p><strong>Effect</strong>: Your contacts have introduced you to an influential member of another organization, allowing you to join that group or train in some of their techniques. Select an organization other than the Pathfinder Society. For the purpose of fulfilling prerequisites and Access conditions, you are treated as being a member of that group in addition to your belonging to the Pathfinder Society.</p>\n<p><strong>Special</strong>: You can purchase this boon multiple times, but each time you purchase it, you relinquish your membership in the previous group in order to join a different group. Before doing so, you must retrain any options that listed membership in your previous group as a prerequisite.</p>"
        },
        "featType": {
            "value": "pfsboon"
        },
        "level": {
            "value": "0"
        },
        "prerequisites": {
            "value": ""
        },
        "rarity": {
            "value": "common"
        },
        "rules": [],
        "source": {
            "value": ""
        },
        "traits": {
            "custom": "",
            "rarity": {
                "value": "common"
            },
            "selected": {},
            "value": []
        }
    },
    "effects": [],
    "flags": {},
    "img": "systems/pf2e/icons/default-icons/mystery-man.png",
    "name": "Secondary Initiation",
    "permission": {
        "default": 0
    },
    "type": "feat"
}
