{
    "_id": "RwjIZzIxzPpUglnK",
    "data": {
        "abilityBoostLevels": {
            "value": [
                5,
                10,
                15,
                20
            ]
        },
        "ancestryFeatLevels": {
            "value": [
                1,
                5,
                9,
                13,
                17
            ]
        },
        "attacks": {
            "advanced": 0,
            "martial": 0,
            "other": {
                "name": "club, crossbow, dagger, heavy crossbow and staff",
                "rank": 1
            },
            "simple": 0,
            "unarmed": 1
        },
        "classDC": 0,
        "classFeatLevels": {
            "value": [
                "2",
                "4",
                "6",
                "8",
                "10",
                "12",
                "14",
                "16",
                "18",
                "20"
            ]
        },
        "defenses": {
            "heavy": 0,
            "light": 0,
            "medium": 0,
            "unarmored": 1
        },
        "description": {
            "value": "<p><em>You are an eternal student of the arcane secrets of the universe, using your mastery of magic to cast powerful and devastating spells. You treat magic like a science, cross-referencing the latest texts on practical spellcraft with ancient esoteric tomes to discover and understand how magic works. Yet magical theory is vast, and there's no way you can study it all. You either specialize in one of the eight schools of magic, gaining deeper understanding of the nuances of those spells above all others, or favor a broader approach that emphasizes the way all magic comes together at the expense of depth.</em><br /><br /><strong>Key Ability: INTELLIGENCE</strong><br />At 1st level, your class gives you an ability boost to Intelligence.</p>\n<p><strong>Hit Points: 6 plus your Constitution modifier</strong><br />You increase your maximum number of HP by this number at 1st level and every level thereafter.</p>\n<h1 class=\"title\">Roleplaying the Wizard</h1>\n<h2 class=\"title\">During Combat Encounters...</h2>\n<p>You likely try to stay out of the fray, carefully judging when to use your spells. You save your most powerful magic to incapacitate threatening foes and use your cantrips when only weaker foes remain. When enemies pull out tricks like @Compendium[pf2e.spells-srd.Invisibility]{Invisibility} or @Compendium[pf2e.spells-srd.Fly]{Fly}, you answer with spells like @Compendium[pf2e.spells-srd.Glitterdust]{Glitterdust} or @Compendium[pf2e.spells-srd.Earthbind]{Earthbind}, leveling the field for your allies.</p>\n<h2 class=\"title\">During Social Encounters...</h2>\n<p>You provide a well of knowledge about arcane matters and solve arguments with logic.</p>\n<h2 class=\"title\">While Exploring...</h2>\n<p>You locate magical auras and determine the arcane significance of magical writing or phenomena you uncover. When you run across an unusual obstacle to further exploration, you probably have a scroll that will make it easier to overcome.</p>\n<h2 class=\"title\">In Downtime...</h2>\n<p>You learn new spells, craft magic items, or scribe scrolls for your party, and seek out new and exciting formulas in addition to spells. You might even forge scholarly connections and establish a school or guild of your own.</p>\n<h2 class=\"title\">You Might...</h2>\n<ul>\n<li>Have an unquenchable intellectual curiosity about how everything in the world around you works-magic in particular.</li>\n<li>Believe fervently that your school of magic is superior (if you're a specialist) or that true mastery of magic requires knowledge of all schools (if you're a universalist).</li>\n<li>Use esoteric jargon and technical terms to precisely describe the minutiae of magical effects, even though the difference is probably lost on other people.</li>\n</ul>\n<h2 class=\"title\">Others Probably...</h2>\n<ul>\n<li>Consider you to be incredibly powerful and potentially dangerous.</li>\n<li>Fear what your magic can do to their minds, bodies, and souls, and ask that you avoid casting spells in polite company, as few can identify whether one of your spells is harmless or malevolent until it's too late.</li>\n<li>Assume you can easily solve all their problems, from dangerous weather to poor crop yields, and ask you for spells that can help them get whatever they desire.</li>\n</ul>\n<h1 class=\"title\">Initial Proficiencies</h1>\n<p>At 1st level, you gain the listed proficiency ranks in the following statistics. You are untrained in anything not listed unless you gain a better proficiency rank in some other way.</p>\n<h2 class=\"title\">Perception</h2>\n<p>Trained in Perception</p>\n<h2 class=\"title\">Saving Throws</h2>\n<p>Trained in Fortitude<br />Trained in Reflex<br />Expert in Will</p>\n<h2 class=\"title\">Skills</h2>\n<p>Trained in Arcana<br />Trained in a number of additional skills equal to 2 plus your Intelligence modifier</p>\n<h2 class=\"title\">Attacks</h2>\n<p>Trained in the club, crossbow, dagger, heavy crossbow, and staff<br />Trained in unarmed attacks</p>\n<h2 class=\"title\">Defenses</h2>\n<p>Untrained in all armor<br />Trained in unarmored defense</p>\n<h2 class=\"title\">Spells</h2>\n<p>Trained in arcane spell attacks<br />Trained in arcane spell DCs</p>\n<h1 class=\"title\">Class Features</h1>\n<p>You gain these features as a Wizard. Abilities gained at higher levels list the levels at which you gain them next to the features' names.</p>\n<table style=\"box-sizing: border-box; user-select: text; width: 591px; color: #191813; height: 359px;\" border=\"1\">\n<tbody style=\"box-sizing: border-box; user-select: text;\">\n<tr style=\"box-sizing: border-box; user-select: text; height: 17px;\">\n<td style=\"box-sizing: border-box; user-select: text; color: white; height: 17px; width: 59px; text-align: center; background-color: #522e2c;\"><strong style=\"box-sizing: border-box; user-select: text;\">Your Leve</strong> l</td>\n<td style=\"box-sizing: border-box; user-select: text; color: white; height: 17px; width: 525px; text-align: center; background-color: #522e2c;\"><strong style=\"box-sizing: border-box; user-select: text;\">Class Features</strong></td>\n</tr>\n<tr style=\"box-sizing: border-box; user-select: text; height: 17px;\">\n<td style=\"box-sizing: border-box; user-select: text; height: 17px; width: 59px; text-align: center; background-color: #f6f1e1;\">1</td>\n<td style=\"box-sizing: border-box; user-select: text; height: 17px; width: 525px; text-align: center; background-color: #f6f1e1;\">Ancestry and background, initial proficiencies, arcane spellcasting, arcane school, arcane bond, arcane thesis</td>\n</tr>\n<tr style=\"box-sizing: border-box; user-select: text; height: 17px;\">\n<td style=\"box-sizing: border-box; user-select: text; height: 17px; width: 59px; text-align: center; background-color: #eee5c8;\">2</td>\n<td style=\"box-sizing: border-box; user-select: text; height: 17px; width: 525px; text-align: center; background-color: #eee5c8;\">Skill feat, wizard feat</td>\n</tr>\n<tr style=\"box-sizing: border-box; user-select: text; height: 17px;\">\n<td style=\"box-sizing: border-box; user-select: text; height: 17px; width: 59px; text-align: center; background-color: #f6f1e1;\">3</td>\n<td style=\"box-sizing: border-box; user-select: text; height: 17px; width: 525px; text-align: center; background-color: #f6f1e1;\">2nd-level spells, general feat, skill increase</td>\n</tr>\n<tr style=\"box-sizing: border-box; user-select: text; height: 19px;\">\n<td style=\"box-sizing: border-box; user-select: text; height: 19px; width: 59px; text-align: center; background-color: #eee5c8;\">4</td>\n<td style=\"box-sizing: border-box; user-select: text; height: 19px; width: 525px; text-align: center; background-color: #eee5c8;\">Skill feat, wizard feat</td>\n</tr>\n<tr style=\"box-sizing: border-box; user-select: text; height: 17px;\">\n<td style=\"box-sizing: border-box; user-select: text; height: 17px; width: 59px; text-align: center; background-color: #f6f1e1;\">5</td>\n<td style=\"box-sizing: border-box; user-select: text; height: 17px; width: 525px; text-align: center; background-color: #f6f1e1;\">3rd-level spells, ability boosts, ancestry feat, lightning reflexes, skill increase</td>\n</tr>\n<tr style=\"box-sizing: border-box; user-select: text; height: 17px;\">\n<td style=\"box-sizing: border-box; user-select: text; height: 17px; width: 59px; text-align: center; background-color: #eee5c8;\">6</td>\n<td style=\"box-sizing: border-box; user-select: text; height: 17px; width: 525px; text-align: center; background-color: #eee5c8;\">Skill feat, wizard feat</td>\n</tr>\n<tr style=\"box-sizing: border-box; user-select: text; height: 17px;\">\n<td style=\"box-sizing: border-box; user-select: text; height: 17px; width: 59px; text-align: center; background-color: #f6f1e1;\">7</td>\n<td style=\"box-sizing: border-box; user-select: text; height: 17px; width: 525px; text-align: center; background-color: #f6f1e1;\">4th-level spells, expert spellcaster, general feat, skill increase</td>\n</tr>\n<tr style=\"box-sizing: border-box; user-select: text; height: 17px;\">\n<td style=\"box-sizing: border-box; user-select: text; height: 17px; width: 59px; text-align: center; background-color: #eee5c8;\">8</td>\n<td style=\"box-sizing: border-box; user-select: text; height: 17px; width: 525px; text-align: center; background-color: #eee5c8;\">Skill feat, wizard feat</td>\n</tr>\n<tr style=\"box-sizing: border-box; user-select: text; height: 17px;\">\n<td style=\"box-sizing: border-box; user-select: text; height: 17px; width: 59px; text-align: center; background-color: #f6f1e1;\">9</td>\n<td style=\"box-sizing: border-box; user-select: text; height: 17px; width: 525px; text-align: center; background-color: #f6f1e1;\">5th-level spells, ancestry feat, magical fortitude, skill increase</td>\n</tr>\n<tr style=\"box-sizing: border-box; user-select: text; height: 17px;\">\n<td style=\"box-sizing: border-box; user-select: text; width: 59px; height: 17px; text-align: center; background-color: #eee5c8;\">10</td>\n<td style=\"box-sizing: border-box; user-select: text; width: 525px; height: 17px; text-align: center; background-color: #eee5c8;\">Ability boosts, skill feat, wizard feat</td>\n</tr>\n<tr style=\"box-sizing: border-box; user-select: text; height: 17px;\">\n<td style=\"box-sizing: border-box; user-select: text; width: 59px; height: 17px; text-align: center; background-color: #f6f1e1;\">11</td>\n<td style=\"box-sizing: border-box; user-select: text; width: 525px; height: 17px; text-align: center; background-color: #f6f1e1;\">6th-level spells, alertness, general feat, skill increase, wizard weapon expertise</td>\n</tr>\n<tr style=\"box-sizing: border-box; user-select: text; height: 17px;\">\n<td style=\"box-sizing: border-box; user-select: text; width: 59px; height: 17px; text-align: center; background-color: #eee5c8;\">12</td>\n<td style=\"box-sizing: border-box; user-select: text; width: 525px; height: 17px; text-align: center; background-color: #eee5c8;\">Skill feat, wizard feat</td>\n</tr>\n<tr style=\"box-sizing: border-box; user-select: text; height: 17px;\">\n<td style=\"box-sizing: border-box; user-select: text; width: 59px; height: 17px; text-align: center; background-color: #f6f1e1;\">13</td>\n<td style=\"box-sizing: border-box; user-select: text; width: 525px; height: 17px; text-align: center; background-color: #f6f1e1;\">7th-level spells, ancestry feat, defensive robes, skill increase, weapon specialization</td>\n</tr>\n<tr style=\"box-sizing: border-box; user-select: text; height: 17px;\">\n<td style=\"box-sizing: border-box; user-select: text; width: 59px; height: 17px; text-align: center; background-color: #eee5c8;\">14</td>\n<td style=\"box-sizing: border-box; user-select: text; width: 525px; height: 17px; text-align: center; background-color: #eee5c8;\">Skill feat, wizard feat</td>\n</tr>\n<tr style=\"box-sizing: border-box; user-select: text; height: 17px;\">\n<td style=\"box-sizing: border-box; user-select: text; width: 59px; height: 17px; text-align: center; background-color: #f6f1e1;\">15</td>\n<td style=\"box-sizing: border-box; user-select: text; width: 525px; height: 17px; text-align: center; background-color: #f6f1e1;\">8th-level spells, ability boosts, general feat, master spellcaster, skill increase</td>\n</tr>\n<tr style=\"box-sizing: border-box; user-select: text; height: 17px;\">\n<td style=\"box-sizing: border-box; user-select: text; width: 59px; height: 17px; text-align: center; background-color: #eee5c8;\">16</td>\n<td style=\"box-sizing: border-box; user-select: text; width: 525px; height: 17px; text-align: center; background-color: #eee5c8;\">Skill feat, wizard feat</td>\n</tr>\n<tr style=\"box-sizing: border-box; user-select: text; height: 17px;\">\n<td style=\"box-sizing: border-box; user-select: text; width: 59px; height: 17px; text-align: center; background-color: #f6f1e1;\">17</td>\n<td style=\"box-sizing: border-box; user-select: text; width: 525px; height: 17px; text-align: center; background-color: #f6f1e1;\">9th-level spells, ancestry feat, resolve, skill increase</td>\n</tr>\n<tr style=\"box-sizing: border-box; user-select: text; height: 17px;\">\n<td style=\"box-sizing: border-box; user-select: text; width: 59px; height: 17px; text-align: center; background-color: #eee5c8;\">18</td>\n<td style=\"box-sizing: border-box; user-select: text; width: 525px; height: 17px; text-align: center; background-color: #eee5c8;\">Skill feat, wizard feat</td>\n</tr>\n<tr style=\"box-sizing: border-box; user-select: text; height: 17px;\">\n<td style=\"box-sizing: border-box; user-select: text; width: 59px; height: 17px; text-align: center; background-color: #f6f1e1;\">19</td>\n<td style=\"box-sizing: border-box; user-select: text; width: 525px; height: 17px; text-align: center; background-color: #f6f1e1;\">Archwizard's spellcraft, legendary archwizard, general feat, skill increase</td>\n</tr>\n<tr style=\"box-sizing: border-box; user-select: text; height: 17px;\">\n<td style=\"box-sizing: border-box; user-select: text; width: 59px; text-align: center; height: 17px; background-color: #eee5c8;\">20</td>\n<td style=\"box-sizing: border-box; user-select: text; width: 525px; text-align: center; height: 17px; background-color: #eee5c8;\">Ability boosts, skill feat, wizard feat</td>\n</tr>\n</tbody>\n</table>\n<h2 class=\"title\">Ancestry and Background</h2>\n<p>In addition to the abilities provided by your class at 1st level, you have the benefits of your selected ancestry and background, as described in Chapter 2.</p>\n<h2 class=\"title\">Arcane Bond</h2>\n<p>You place some of your magical power in a bonded item. Each day when you prepare your spells, you can designate a single item you own as your bonded item. This is typically an item associated with spellcasting, such as a wand, ring, or staff, but you are free to designate a weapon or other item. You gain the Drain Bonded Item free action.</p>\n<h3 class=\"title\">@Compendium[pf2e.actionspf2e.Drain Bonded Item]{Drain Bonded Item} <span style=\"font-family: 'Pathfinder2eActions'; font-size: 1.8em; display: inline;\">F</span></h3>\n<p><strong>Frequency</strong> once per day<br /><strong>Requirements</strong> You haven't acted yet on your turn</p>\n<hr />\n<p>You expend the power stored in your bonded item. During your turn, you gain the ability to cast one spell you prepared today and already cast, without spending a spell slot. You must still Cast the Spell and meet the spell's other requirements.</p>\n<h2 class=\"title\">Arcane School</h2>\n<p>Many arcane spellcasters delve deeply into a single school of magic in an attempt to master its secrets. If you want to be a specialist wizard, choose a school in which to specialize. You gain additional spells and spell slots for spells of your school.</p>\n<p>If you don't choose a school, you're a universalist, a wizard who believes that the path to true knowledge of magic requires a multidisciplinary understanding of all eight schools working together. Though a universalist lacks the focus of a specialist wizard, they have greater fiexibility.</p>\n<p>Arcane schools can be found here (@Compendium[pf2e.classfeatures.Arcane School: Abjuration]{Arcane School: Abjuration}, @Compendium[pf2e.classfeatures.Arcane School: Conjuration]{Arcane School: Conjuration}, @Compendium[pf2e.classfeatures.Arcane School: Divination]{Arcane School: Divination}, @Compendium[pf2e.classfeatures.Arcane School: Enchantment]{Arcane School: Enchantment}, @Compendium[pf2e.classfeatures.Arcane School: Evocation]{Arcane School: Evocation}, @Compendium[pf2e.classfeatures.Arcane School: Illusion]{Arcane School: Illusion}, @Compendium[pf2e.classfeatures.Arcane School: Necromancy]{Arcane School: Necromancy}, @Compendium[pf2e.classfeatures.Arcane School: Transmutation]{Arcane School: Transmutation} and @Compendium[pf2e.classfeatures.Arcane School: Universalist]{Arcane School: Universalist})</p>\n<h2 class=\"title\">Arcane Spellcasting</h2>\n<p>Through dedicated study and practice, you can harness arcane power to cast spells. You can cast arcane spells using the Cast a Spell activity, and you can supply material, somatic, and verbal components when casting spells (see Casting Spells on page 302).</p>\n<p>At 1st level, you can prepare up to two 1st-level spells and five cantrips each morning from the spells in your spellbook (see below), plus one extra cantrip and spell of your chosen school of each level you can cast if you are a specialist wizard. Prepared spells remain available to you until you cast them or until you prepare your spells again. The number of spells you can prepare is called your spell slots.</p>\n<p>As you increase in level as a wizard, your number of spell slots and the highest level of spells you can cast from spell slots increase, shown in Table 3-19: Wizard Spells per Day on page 205.</p>\n<p>Some of your spells require you to attempt a spell attack roll to see how effective they are, or have your enemies roll against your spell DC (typically by attempting a saving throw). Since your key ability is Intelligence, your spell attack rolls and spell DCs use your Intelligence modifier. Details on calculating these statistics appear on page 447.</p>\n<h3 class=\"title\"><strong>Heightening Spells</strong></h3>\n<p>When you get spell slots of 2nd level and higher, you can fill those slots with stronger versions of lower-level spells. This increases the spell's level, heightening it to match the spell slot. Many spells have specific improvements when they are heightened to certain levels.</p>\n<h3 class=\"title\"><strong>Cantrips</strong></h3>\n<p>A cantrip is a special type of spell that doesn't use spell slots. You can cast a cantrip at will, any number of times per day. A cantrip is always automatically heightened to half your level rounded up-this is usually equal to the highest level of spell you can cast as a wizard. For example, as a 1st-level wizard, your cantrips are 1st-level spells, and as a 5th-level wizard, your cantrips are 3rd-level spells.</p>\n<h3 class=\"title\"><strong>Spellbook</strong></h3>\n<p>Every arcane spell has a written version, usually recorded in a spellbook. You start with a spellbook worth 10 sp or less (as detailed on page 291), which you receive for free and must study to prepare your spells each day. The spellbook contains your choice of 10 arcane cantrips and five 1st-level arcane spells. You choose these from the common spells on the arcane spell list from this book (page 307) or from other arcane spells you gain access to. Your spellbook's form and name are up to you. It might be a musty, leather-bound tome or an assortment of thin metal disks connected to a brass ring; its name might be esoteric, like <em>The Crimson Libram</em>, or something more academic, like <em>A Field Study in Practical Transmutation</em>.<br /><br />Each time you gain a level, you add two more arcane spells to your spellbook, of any level of spell you can cast. You can also use the Arcana skill to add other spells that you find in your adventures, as described on page 241.</p>\n<table style=\"height: 356px; width: 540px;\" border=\"1\">\n<tbody>\n<tr style=\"height: 17px;\">\n<td style=\"color: white; width: 120px; height: 17px; background-color: #522e2c; text-align: center;\"><strong>Your Level</strong></td>\n<td style=\"color: white; height: 17px; background-color: #522e2c; text-align: center; width: 120px;\"><strong>Cantrips</strong></td>\n<td style=\"color: white; width: 30px; height: 17px; background-color: #522e2c; text-align: center;\"><strong>1st</strong></td>\n<td style=\"color: white; width: 30px; height: 17px; background-color: #522e2c; text-align: center;\"><strong>2nd</strong></td>\n<td style=\"color: white; width: 30px; height: 17px; background-color: #522e2c; text-align: center;\"><strong>3rd</strong></td>\n<td style=\"color: white; width: 30px; height: 17px; background-color: #522e2c; text-align: center;\"><strong>4th</strong></td>\n<td style=\"color: white; width: 30px; height: 17px; background-color: #522e2c; text-align: center;\"><strong>5th</strong></td>\n<td style=\"color: white; width: 30px; height: 17px; background-color: #522e2c; text-align: center;\"><strong>6th</strong></td>\n<td style=\"color: white; width: 30px; height: 17px; background-color: #522e2c; text-align: center;\"><strong>7th</strong></td>\n<td style=\"color: white; width: 30px; height: 17px; background-color: #522e2c; text-align: center;\"><strong>8th</strong></td>\n<td style=\"color: white; width: 30px; height: 17px; background-color: #522e2c; text-align: center;\"><strong>9th</strong></td>\n<td style=\"color: white; width: 30px; height: 17px; background-color: #522e2c; text-align: center;\"><strong>10th</strong></td>\n</tr>\n<tr style=\"height: 17px;\">\n<td style=\"width: 120px; height: 17px; background-color: #f6f1e1; text-align: center;\">1</td>\n<td style=\"width: 120px; height: 17px; background-color: #f6f1e1; text-align: center;\">5</td>\n<td style=\"width: 30px; height: 17px; background-color: #f6f1e1; text-align: center;\">2</td>\n<td style=\"width: 30px; height: 17px; background-color: #f6f1e1; text-align: center;\">-</td>\n<td style=\"width: 30px; height: 17px; background-color: #f6f1e1; text-align: center;\">-</td>\n<td style=\"width: 30px; height: 17px; background-color: #f6f1e1; text-align: center;\">-</td>\n<td style=\"width: 30px; height: 17px; background-color: #f6f1e1; text-align: center;\">-</td>\n<td style=\"width: 30px; height: 17px; background-color: #f6f1e1; text-align: center;\">-</td>\n<td style=\"width: 30px; height: 17px; background-color: #f6f1e1; text-align: center;\">-</td>\n<td style=\"width: 30px; height: 17px; background-color: #f6f1e1; text-align: center;\">-</td>\n<td style=\"width: 30px; height: 17px; background-color: #f6f1e1; text-align: center;\">-</td>\n<td style=\"width: 30px; height: 17px; background-color: #f6f1e1; text-align: center;\">-</td>\n</tr>\n<tr style=\"height: 17px;\">\n<td style=\"width: 120px; background-color: #eee5c8; height: 17px; text-align: center;\">2</td>\n<td style=\"width: 120px; background-color: #eee5c8; height: 17px; text-align: center;\">5</td>\n<td style=\"width: 30px; background-color: #eee5c8; height: 17px; text-align: center;\">3</td>\n<td style=\"width: 30px; background-color: #eee5c8; height: 17px; text-align: center;\">-</td>\n<td style=\"width: 30px; background-color: #eee5c8; height: 17px; text-align: center;\">-</td>\n<td style=\"width: 30px; background-color: #eee5c8; height: 17px; text-align: center;\">-</td>\n<td style=\"width: 30px; background-color: #eee5c8; height: 17px; text-align: center;\">-</td>\n<td style=\"width: 30px; background-color: #eee5c8; height: 17px; text-align: center;\">-</td>\n<td style=\"width: 30px; background-color: #eee5c8; height: 17px; text-align: center;\">-</td>\n<td style=\"width: 30px; background-color: #eee5c8; height: 17px; text-align: center;\">-</td>\n<td style=\"width: 30px; background-color: #eee5c8; height: 17px; text-align: center;\">-</td>\n<td style=\"width: 30px; background-color: #eee5c8; height: 17px; text-align: center;\">-</td>\n</tr>\n<tr style=\"height: 17px;\">\n<td style=\"width: 120px; background-color: #f6f1e1; height: 17px; text-align: center;\">3</td>\n<td style=\"width: 120px; background-color: #f6f1e1; height: 17px; text-align: center;\">5</td>\n<td style=\"width: 30px; background-color: #f6f1e1; height: 17px; text-align: center;\">3</td>\n<td style=\"width: 30px; background-color: #f6f1e1; height: 17px; text-align: center;\">2</td>\n<td style=\"width: 30px; background-color: #f6f1e1; height: 17px; text-align: center;\">-</td>\n<td style=\"width: 30px; background-color: #f6f1e1; height: 17px; text-align: center;\">-</td>\n<td style=\"width: 30px; background-color: #f6f1e1; height: 17px; text-align: center;\">-</td>\n<td style=\"width: 30px; background-color: #f6f1e1; height: 17px; text-align: center;\">-</td>\n<td style=\"width: 30px; background-color: #f6f1e1; height: 17px; text-align: center;\">-</td>\n<td style=\"width: 30px; background-color: #f6f1e1; height: 17px; text-align: center;\">-</td>\n<td style=\"width: 30px; background-color: #f6f1e1; height: 17px; text-align: center;\">-</td>\n<td style=\"width: 30px; background-color: #f6f1e1; height: 17px; text-align: center;\">-</td>\n</tr>\n<tr style=\"height: 17px;\">\n<td style=\"width: 120px; background-color: #eee5c8; height: 17px; text-align: center;\">4</td>\n<td style=\"width: 120px; background-color: #eee5c8; height: 17px; text-align: center;\">5</td>\n<td style=\"width: 30px; background-color: #eee5c8; height: 17px; text-align: center;\">3</td>\n<td style=\"width: 30px; background-color: #eee5c8; height: 17px; text-align: center;\">3</td>\n<td style=\"width: 30px; background-color: #eee5c8; height: 17px; text-align: center;\">-</td>\n<td style=\"width: 30px; background-color: #eee5c8; height: 17px; text-align: center;\">-</td>\n<td style=\"width: 30px; background-color: #eee5c8; height: 17px; text-align: center;\">-</td>\n<td style=\"width: 30px; background-color: #eee5c8; height: 17px; text-align: center;\">-</td>\n<td style=\"width: 30px; background-color: #eee5c8; height: 17px; text-align: center;\">-</td>\n<td style=\"width: 30px; background-color: #eee5c8; height: 17px; text-align: center;\">-</td>\n<td style=\"width: 30px; background-color: #eee5c8; height: 17px; text-align: center;\">-</td>\n<td style=\"width: 30px; background-color: #eee5c8; height: 17px; text-align: center;\">-</td>\n</tr>\n<tr style=\"height: 17px;\">\n<td style=\"width: 120px; background-color: #f6f1e1; height: 17px; text-align: center;\">5</td>\n<td style=\"width: 120px; background-color: #f6f1e1; height: 17px; text-align: center;\">5</td>\n<td style=\"width: 30px; background-color: #f6f1e1; height: 17px; text-align: center;\">3</td>\n<td style=\"width: 30px; background-color: #f6f1e1; height: 17px; text-align: center;\">3</td>\n<td style=\"width: 30px; background-color: #f6f1e1; height: 17px; text-align: center;\">2</td>\n<td style=\"width: 30px; background-color: #f6f1e1; height: 17px; text-align: center;\">-</td>\n<td style=\"width: 30px; background-color: #f6f1e1; height: 17px; text-align: center;\">-</td>\n<td style=\"width: 30px; background-color: #f6f1e1; height: 17px; text-align: center;\">-</td>\n<td style=\"width: 30px; background-color: #f6f1e1; height: 17px; text-align: center;\">-</td>\n<td style=\"width: 30px; background-color: #f6f1e1; height: 17px; text-align: center;\">-</td>\n<td style=\"width: 30px; background-color: #f6f1e1; height: 17px; text-align: center;\">-</td>\n<td style=\"width: 30px; background-color: #f6f1e1; height: 17px; text-align: center;\">-</td>\n</tr>\n<tr style=\"height: 17px;\">\n<td style=\"width: 120px; background-color: #eee5c8; height: 17px; text-align: center;\">6</td>\n<td style=\"width: 120px; background-color: #eee5c8; height: 17px; text-align: center;\">5</td>\n<td style=\"width: 30px; background-color: #eee5c8; height: 17px; text-align: center;\">3</td>\n<td style=\"width: 30px; background-color: #eee5c8; height: 17px; text-align: center;\">3</td>\n<td style=\"width: 30px; background-color: #eee5c8; height: 17px; text-align: center;\">3</td>\n<td style=\"width: 30px; background-color: #eee5c8; height: 17px; text-align: center;\">-</td>\n<td style=\"width: 30px; background-color: #eee5c8; height: 17px; text-align: center;\">-</td>\n<td style=\"width: 30px; background-color: #eee5c8; height: 17px; text-align: center;\">-</td>\n<td style=\"width: 30px; background-color: #eee5c8; height: 17px; text-align: center;\">-</td>\n<td style=\"width: 30px; background-color: #eee5c8; height: 17px; text-align: center;\">-</td>\n<td style=\"width: 30px; background-color: #eee5c8; height: 17px; text-align: center;\">-</td>\n<td style=\"width: 30px; background-color: #eee5c8; height: 17px; text-align: center;\">-</td>\n</tr>\n<tr style=\"height: 17px;\">\n<td style=\"width: 120px; background-color: #f6f1e1; height: 17px; text-align: center;\">7</td>\n<td style=\"width: 120px; background-color: #f6f1e1; height: 17px; text-align: center;\">5</td>\n<td style=\"width: 30px; background-color: #f6f1e1; height: 17px; text-align: center;\">3</td>\n<td style=\"width: 30px; background-color: #f6f1e1; height: 17px; text-align: center;\">3</td>\n<td style=\"width: 30px; background-color: #f6f1e1; height: 17px; text-align: center;\">3</td>\n<td style=\"width: 30px; background-color: #f6f1e1; height: 17px; text-align: center;\">2</td>\n<td style=\"width: 30px; background-color: #f6f1e1; height: 17px; text-align: center;\">-</td>\n<td style=\"width: 30px; background-color: #f6f1e1; height: 17px; text-align: center;\">-</td>\n<td style=\"width: 30px; background-color: #f6f1e1; height: 17px; text-align: center;\">-</td>\n<td style=\"width: 30px; background-color: #f6f1e1; height: 17px; text-align: center;\">-</td>\n<td style=\"width: 30px; background-color: #f6f1e1; height: 17px; text-align: center;\">-</td>\n<td style=\"width: 30px; background-color: #f6f1e1; height: 17px; text-align: center;\">-</td>\n</tr>\n<tr style=\"height: 17px;\">\n<td style=\"width: 120px; background-color: #eee5c8; height: 17px; text-align: center;\">8</td>\n<td style=\"width: 120px; background-color: #eee5c8; height: 17px; text-align: center;\">5</td>\n<td style=\"width: 30px; background-color: #eee5c8; height: 17px; text-align: center;\">3</td>\n<td style=\"width: 30px; background-color: #eee5c8; height: 17px; text-align: center;\">3</td>\n<td style=\"width: 30px; background-color: #eee5c8; height: 17px; text-align: center;\">3</td>\n<td style=\"width: 30px; background-color: #eee5c8; height: 17px; text-align: center;\">3</td>\n<td style=\"width: 30px; background-color: #eee5c8; height: 17px; text-align: center;\">-</td>\n<td style=\"width: 30px; background-color: #eee5c8; height: 17px; text-align: center;\">-</td>\n<td style=\"width: 30px; background-color: #eee5c8; height: 17px; text-align: center;\">-</td>\n<td style=\"width: 30px; background-color: #eee5c8; height: 17px; text-align: center;\">-</td>\n<td style=\"width: 30px; background-color: #eee5c8; height: 17px; text-align: center;\">-</td>\n<td style=\"width: 30px; background-color: #eee5c8; height: 17px; text-align: center;\">-</td>\n</tr>\n<tr style=\"height: 17px;\">\n<td style=\"width: 120px; background-color: #f6f1e1; height: 17px; text-align: center;\">9</td>\n<td style=\"width: 120px; background-color: #f6f1e1; height: 17px; text-align: center;\">5</td>\n<td style=\"width: 30px; background-color: #f6f1e1; height: 17px; text-align: center;\">3</td>\n<td style=\"width: 30px; background-color: #f6f1e1; height: 17px; text-align: center;\">3</td>\n<td style=\"width: 30px; background-color: #f6f1e1; height: 17px; text-align: center;\">3</td>\n<td style=\"width: 30px; background-color: #f6f1e1; height: 17px; text-align: center;\">3</td>\n<td style=\"width: 30px; background-color: #f6f1e1; height: 17px; text-align: center;\">2</td>\n<td style=\"width: 30px; background-color: #f6f1e1; height: 17px; text-align: center;\">-</td>\n<td style=\"width: 30px; background-color: #f6f1e1; height: 17px; text-align: center;\">-</td>\n<td style=\"width: 30px; background-color: #f6f1e1; height: 17px; text-align: center;\">-</td>\n<td style=\"width: 30px; background-color: #f6f1e1; height: 17px; text-align: center;\">-</td>\n<td style=\"width: 30px; background-color: #f6f1e1; height: 17px; text-align: center;\">-</td>\n</tr>\n<tr style=\"height: 17px;\">\n<td style=\"width: 120px; background-color: #eee5c8; height: 17px; text-align: center;\">10</td>\n<td style=\"width: 120px; background-color: #eee5c8; height: 17px; text-align: center;\">5</td>\n<td style=\"width: 30px; background-color: #eee5c8; height: 17px; text-align: center;\">3</td>\n<td style=\"width: 30px; background-color: #eee5c8; height: 17px; text-align: center;\">3</td>\n<td style=\"width: 30px; background-color: #eee5c8; height: 17px; text-align: center;\">3</td>\n<td style=\"width: 30px; background-color: #eee5c8; height: 17px; text-align: center;\">3</td>\n<td style=\"width: 30px; background-color: #eee5c8; height: 17px; text-align: center;\">3</td>\n<td style=\"width: 30px; background-color: #eee5c8; height: 17px; text-align: center;\">-</td>\n<td style=\"width: 30px; background-color: #eee5c8; height: 17px; text-align: center;\">-</td>\n<td style=\"width: 30px; background-color: #eee5c8; height: 17px; text-align: center;\">-</td>\n<td style=\"width: 30px; background-color: #eee5c8; height: 17px; text-align: center;\">-</td>\n<td style=\"width: 30px; background-color: #eee5c8; height: 17px; text-align: center;\">-</td>\n</tr>\n<tr style=\"height: 17px;\">\n<td style=\"width: 120px; background-color: #f6f1e1; height: 17px; text-align: center;\">11</td>\n<td style=\"width: 120px; background-color: #f6f1e1; height: 17px; text-align: center;\">5</td>\n<td style=\"width: 30px; background-color: #f6f1e1; height: 17px; text-align: center;\">3</td>\n<td style=\"width: 30px; background-color: #f6f1e1; height: 17px; text-align: center;\">3</td>\n<td style=\"width: 30px; background-color: #f6f1e1; height: 17px; text-align: center;\">3</td>\n<td style=\"width: 30px; background-color: #f6f1e1; height: 17px; text-align: center;\">3</td>\n<td style=\"width: 30px; background-color: #f6f1e1; height: 17px; text-align: center;\">3</td>\n<td style=\"width: 30px; background-color: #f6f1e1; height: 17px; text-align: center;\">2</td>\n<td style=\"width: 30px; background-color: #f6f1e1; height: 17px; text-align: center;\">-</td>\n<td style=\"width: 30px; background-color: #f6f1e1; height: 17px; text-align: center;\">-</td>\n<td style=\"width: 30px; background-color: #f6f1e1; height: 17px; text-align: center;\">-</td>\n<td style=\"width: 30px; background-color: #f6f1e1; height: 17px; text-align: center;\">-</td>\n</tr>\n<tr style=\"height: 17px;\">\n<td style=\"width: 120px; background-color: #eee5c8; height: 17px; text-align: center;\">12</td>\n<td style=\"width: 120px; background-color: #eee5c8; height: 17px; text-align: center;\">5</td>\n<td style=\"width: 30px; background-color: #eee5c8; height: 17px; text-align: center;\">3</td>\n<td style=\"width: 30px; background-color: #eee5c8; height: 17px; text-align: center;\">3</td>\n<td style=\"width: 30px; background-color: #eee5c8; height: 17px; text-align: center;\">3</td>\n<td style=\"width: 30px; background-color: #eee5c8; height: 17px; text-align: center;\">3</td>\n<td style=\"width: 30px; background-color: #eee5c8; height: 17px; text-align: center;\">3</td>\n<td style=\"width: 30px; background-color: #eee5c8; height: 17px; text-align: center;\">3</td>\n<td style=\"width: 30px; background-color: #eee5c8; height: 17px; text-align: center;\">-</td>\n<td style=\"width: 30px; background-color: #eee5c8; height: 17px; text-align: center;\">-</td>\n<td style=\"width: 30px; background-color: #eee5c8; height: 17px; text-align: center;\">-</td>\n<td style=\"width: 30px; background-color: #eee5c8; height: 17px; text-align: center;\">-</td>\n</tr>\n<tr style=\"height: 17px;\">\n<td style=\"width: 120px; background-color: #f6f1e1; height: 17px; text-align: center;\">13</td>\n<td style=\"width: 120px; background-color: #f6f1e1; height: 17px; text-align: center;\">5</td>\n<td style=\"width: 30px; background-color: #f6f1e1; height: 17px; text-align: center;\">3</td>\n<td style=\"width: 30px; background-color: #f6f1e1; height: 17px; text-align: center;\">3</td>\n<td style=\"width: 30px; background-color: #f6f1e1; height: 17px; text-align: center;\">3</td>\n<td style=\"width: 30px; background-color: #f6f1e1; height: 17px; text-align: center;\">3</td>\n<td style=\"width: 30px; background-color: #f6f1e1; height: 17px; text-align: center;\">3</td>\n<td style=\"width: 30px; background-color: #f6f1e1; height: 17px; text-align: center;\">3</td>\n<td style=\"width: 30px; background-color: #f6f1e1; height: 17px; text-align: center;\">2</td>\n<td style=\"width: 30px; background-color: #f6f1e1; height: 17px; text-align: center;\">-</td>\n<td style=\"width: 30px; background-color: #f6f1e1; height: 17px; text-align: center;\">-</td>\n<td style=\"width: 30px; background-color: #f6f1e1; height: 17px; text-align: center;\">-</td>\n</tr>\n<tr style=\"height: 17px;\">\n<td style=\"width: 120px; background-color: #eee5c8; height: 17px; text-align: center;\">14</td>\n<td style=\"width: 120px; background-color: #eee5c8; height: 17px; text-align: center;\">5</td>\n<td style=\"width: 30px; background-color: #eee5c8; height: 17px; text-align: center;\">3</td>\n<td style=\"width: 30px; background-color: #eee5c8; height: 17px; text-align: center;\">3</td>\n<td style=\"width: 30px; background-color: #eee5c8; height: 17px; text-align: center;\">3</td>\n<td style=\"width: 30px; background-color: #eee5c8; height: 17px; text-align: center;\">3</td>\n<td style=\"width: 30px; background-color: #eee5c8; height: 17px; text-align: center;\">3</td>\n<td style=\"width: 30px; background-color: #eee5c8; height: 17px; text-align: center;\">3</td>\n<td style=\"width: 30px; background-color: #eee5c8; height: 17px; text-align: center;\">3</td>\n<td style=\"width: 30px; background-color: #eee5c8; height: 17px; text-align: center;\">-</td>\n<td style=\"width: 30px; background-color: #eee5c8; height: 17px; text-align: center;\">-</td>\n<td style=\"width: 30px; background-color: #eee5c8; height: 17px; text-align: center;\">-</td>\n</tr>\n<tr style=\"height: 17px;\">\n<td style=\"width: 120px; background-color: #f6f1e1; height: 17px; text-align: center;\">15</td>\n<td style=\"width: 120px; background-color: #f6f1e1; height: 17px; text-align: center;\">5</td>\n<td style=\"width: 30px; background-color: #f6f1e1; height: 17px; text-align: center;\">3</td>\n<td style=\"width: 30px; background-color: #f6f1e1; height: 17px; text-align: center;\">3</td>\n<td style=\"width: 30px; background-color: #f6f1e1; height: 17px; text-align: center;\">3</td>\n<td style=\"width: 30px; background-color: #f6f1e1; height: 17px; text-align: center;\">3</td>\n<td style=\"width: 30px; background-color: #f6f1e1; height: 17px; text-align: center;\">3</td>\n<td style=\"width: 30px; background-color: #f6f1e1; height: 17px; text-align: center;\">3</td>\n<td style=\"width: 30px; background-color: #f6f1e1; height: 17px; text-align: center;\">3</td>\n<td style=\"width: 30px; background-color: #f6f1e1; height: 17px; text-align: center;\">2</td>\n<td style=\"width: 30px; background-color: #f6f1e1; height: 17px; text-align: center;\">-</td>\n<td style=\"width: 30px; background-color: #f6f1e1; height: 17px; text-align: center;\">-</td>\n</tr>\n<tr style=\"height: 17px;\">\n<td style=\"width: 120px; background-color: #eee5c8; height: 17px; text-align: center;\">16</td>\n<td style=\"width: 120px; background-color: #eee5c8; height: 17px; text-align: center;\">5</td>\n<td style=\"width: 30px; background-color: #eee5c8; height: 17px; text-align: center;\">3</td>\n<td style=\"width: 30px; background-color: #eee5c8; height: 17px; text-align: center;\">3</td>\n<td style=\"width: 30px; background-color: #eee5c8; height: 17px; text-align: center;\">3</td>\n<td style=\"width: 30px; background-color: #eee5c8; height: 17px; text-align: center;\">3</td>\n<td style=\"width: 30px; background-color: #eee5c8; height: 17px; text-align: center;\">3</td>\n<td style=\"width: 30px; background-color: #eee5c8; height: 17px; text-align: center;\">3</td>\n<td style=\"width: 30px; background-color: #eee5c8; height: 17px; text-align: center;\">3</td>\n<td style=\"width: 30px; background-color: #eee5c8; height: 17px; text-align: center;\">3</td>\n<td style=\"width: 30px; background-color: #eee5c8; height: 17px; text-align: center;\">-</td>\n<td style=\"width: 30px; background-color: #eee5c8; height: 17px; text-align: center;\">-</td>\n</tr>\n<tr style=\"height: 17px;\">\n<td style=\"width: 120px; background-color: #f6f1e1; height: 17px; text-align: center;\">17</td>\n<td style=\"width: 120px; background-color: #f6f1e1; height: 17px; text-align: center;\">5</td>\n<td style=\"width: 30px; background-color: #f6f1e1; height: 17px; text-align: center;\">3</td>\n<td style=\"width: 30px; background-color: #f6f1e1; height: 17px; text-align: center;\">3</td>\n<td style=\"width: 30px; background-color: #f6f1e1; height: 17px; text-align: center;\">3</td>\n<td style=\"width: 30px; background-color: #f6f1e1; height: 17px; text-align: center;\">3</td>\n<td style=\"width: 30px; background-color: #f6f1e1; height: 17px; text-align: center;\">3</td>\n<td style=\"width: 30px; background-color: #f6f1e1; height: 17px; text-align: center;\">3</td>\n<td style=\"width: 30px; background-color: #f6f1e1; height: 17px; text-align: center;\">3</td>\n<td style=\"width: 30px; background-color: #f6f1e1; height: 17px; text-align: center;\">3</td>\n<td style=\"width: 30px; background-color: #f6f1e1; height: 17px; text-align: center;\">2</td>\n<td style=\"width: 30px; background-color: #f6f1e1; height: 17px; text-align: center;\">-</td>\n</tr>\n<tr style=\"height: 17px;\">\n<td style=\"width: 120px; background-color: #eee5c8; height: 17px; text-align: center;\">18</td>\n<td style=\"width: 120px; background-color: #eee5c8; height: 17px; text-align: center;\">5</td>\n<td style=\"width: 30px; background-color: #eee5c8; height: 17px; text-align: center;\">3</td>\n<td style=\"width: 30px; background-color: #eee5c8; height: 17px; text-align: center;\">3</td>\n<td style=\"width: 30px; background-color: #eee5c8; height: 17px; text-align: center;\">3</td>\n<td style=\"width: 30px; background-color: #eee5c8; height: 17px; text-align: center;\">3</td>\n<td style=\"width: 30px; background-color: #eee5c8; height: 17px; text-align: center;\">3</td>\n<td style=\"width: 30px; background-color: #eee5c8; height: 17px; text-align: center;\">3</td>\n<td style=\"width: 30px; background-color: #eee5c8; height: 17px; text-align: center;\">3</td>\n<td style=\"width: 30px; background-color: #eee5c8; height: 17px; text-align: center;\">3</td>\n<td style=\"width: 30px; background-color: #eee5c8; height: 17px; text-align: center;\">3</td>\n<td style=\"width: 30px; background-color: #eee5c8; height: 17px; text-align: center;\">-</td>\n</tr>\n<tr style=\"height: 17px;\">\n<td style=\"width: 120px; background-color: #f6f1e1; height: 16px; text-align: center;\">19</td>\n<td style=\"width: 120px; background-color: #f6f1e1; height: 16px; text-align: center;\">5</td>\n<td style=\"width: 30px; background-color: #f6f1e1; height: 16px; text-align: center;\">3</td>\n<td style=\"width: 30px; background-color: #f6f1e1; height: 16px; text-align: center;\">3</td>\n<td style=\"width: 30px; background-color: #f6f1e1; height: 16px; text-align: center;\">3</td>\n<td style=\"width: 30px; background-color: #f6f1e1; height: 16px; text-align: center;\">3</td>\n<td style=\"width: 30px; background-color: #f6f1e1; height: 16px; text-align: center;\">3</td>\n<td style=\"width: 30px; background-color: #f6f1e1; height: 16px; text-align: center;\">3</td>\n<td style=\"width: 30px; background-color: #f6f1e1; height: 16px; text-align: center;\">3</td>\n<td style=\"width: 30px; background-color: #f6f1e1; height: 16px; text-align: center;\">3</td>\n<td style=\"width: 30px; background-color: #f6f1e1; height: 16px; text-align: center;\">3</td>\n<td style=\"width: 30px; background-color: #f6f1e1; height: 16px; text-align: center;\">1*</td>\n</tr>\n<tr style=\"height: 17px;\">\n<td style=\"width: 120px; background-color: #eee5c8; height: 17px; text-align: center;\">20</td>\n<td style=\"width: 120px; background-color: #eee5c8; height: 17px; text-align: center;\">5</td>\n<td style=\"width: 30px; background-color: #eee5c8; height: 17px; text-align: center;\">3</td>\n<td style=\"width: 30px; background-color: #eee5c8; height: 17px; text-align: center;\">3</td>\n<td style=\"width: 30px; background-color: #eee5c8; height: 17px; text-align: center;\">3</td>\n<td style=\"width: 30px; background-color: #eee5c8; height: 17px; text-align: center;\">3</td>\n<td style=\"width: 30px; background-color: #eee5c8; height: 17px; text-align: center;\">3</td>\n<td style=\"width: 30px; background-color: #eee5c8; height: 17px; text-align: center;\">3</td>\n<td style=\"width: 30px; background-color: #eee5c8; height: 17px; text-align: center;\">3</td>\n<td style=\"width: 30px; background-color: #eee5c8; height: 17px; text-align: center;\">3</td>\n<td style=\"width: 30px; background-color: #eee5c8; height: 17px; text-align: center;\">3</td>\n<td style=\"width: 30px; background-color: #eee5c8; height: 17px; text-align: center;\">1*</td>\n</tr>\n<tr>\n<td style=\"color: white; width: 120px; background-color: #522e2c; text-align: center; height: 25px;\" colspan=\"12\">* The Archwizard's Spellcraft class feature gives you a 10th-level spell slot that works a bit differently from other spell slots.</td>\n</tr>\n</tbody>\n</table>\n<h2 class=\"title\">Arcane Thesis</h2>\n<p>During your studies to become a full-fledged wizard, you produced a thesis of unique magical research on one of a variety of topics. You gain a special benefit depending on the topic of your thesis research. The arcane thesis topics presented in this book are below; your specific thesis probably has a much longer and more technical title like \"On the Methods of Spell Interpolation and the Genesis of a New Understanding of the Building Blocks of Magic.\"</p>\n<p>Arcane thesis can be found here @Compendium[pf2e.classfeatures.Arcane Thesis]{Arcane Thesis}.</p>\n<h2 class=\"title\">Initial Proficiencies</h2>\n<p>At 1st level, you gain a number of proficiencies that represent your basic training. These proficiencies are noted at the start of this class.</p>\n<h2 class=\"title\">Skill Feats<span style=\"float: right;\">Level 2</span></h2>\n<p>At 2nd level and every 2 levels thereafter, you gain a skill feat. Skill feats can be found in Chapter 5 and have the skill trait. You must be trained or better in the corresponding skill to select a skill feat.</p>\n<h2 class=\"title\">Wizard Feats<span style=\"float: right;\">Level 2</span></h2>\n<p>At 2nd level and every even-numbered level thereafter, you gain a wizard class feat. These feats begin on page 209.</p>\n<h2 class=\"title\">General Feats<span style=\"float: right;\">Level 3</span></h2>\n<p>At 3rd level and every 4 levels thereafter, you gain a general feat. General feats are listed in Chapter 5.</p>\n<h2 class=\"title\">Skill Increases<span style=\"float: right;\">Level 3</span></h2>\n<p>At 3rd level and every 2 levels thereafter, you gain a skill increase. You can use this increase either to increase your proficiency rank to trained in one skill you're untrained in, or to increase your proficiency rank in one skill in which you're already trained to expert.</p>\n<p>At 7th level, you can use skill increases to increase your proficiency rank to master in a skill in which you're already an expert, and at 15th level, you can use them to increase your proficiency rank to legendary in a skill in which you're already a master.</p>\n<h2 class=\"title\">Ability Boosts<span style=\"float: right;\">Level 5</span></h2>\n<p>At 5th level and every 5 levels thereafter, you boost four different ability scores. You can use these ability boosts to increase your ability scores above 18. Boosting an ability score increases it by 1 if it's already 18 or above, or by 2 if it starts out below 18.</p>\n<h2 class=\"title\">Ancestry Feats<span style=\"float: right;\">Level 5</span></h2>\n<p>In addition to the ancestry feat you started with, you gain an ancestry feat at 5th level and every 4 levels thereafter. The list of ancestry feats available to you can be found in your ancestry's entry in Chapter 2.</p>\n<h2 class=\"title\">Lightning Reflexes<span style=\"float: right;\">Level 5</span></h2>\n<p>Your reflexes are lightning fast. Your proficiency rank for Reflex saves increases to expert.</p>\n<h2 class=\"title\">Expert Spellcaster<span style=\"float: right;\">Level 7</span></h2>\n<p>Extended practice of the arcane has improved your capabilities. Your proficiency ranks for arcane spell attack rolls and spell DCs increase to expert.</p>\n<h2 class=\"title\">Magical Fortitude<span style=\"float: right;\">Level 9</span></h2>\n<p>Magical power has improved your body's resiliency. Your proficiency rank for Fortitude saves increases to expert.</p>\n<h2 class=\"title\">Alertness<span style=\"float: right;\">Level 11</span></h2>\n<p>You remain alert to threats around you. Your proficiency rank for Perception increases to expert.</p>\n<h2 class=\"title\">Wizard Weapon Expertise<span style=\"float: right;\">Level 11</span></h2>\n<p>Through a combination of magic and training, you've learned how to wield wizard weapons more effectively. You gain expert proficiency in the club, crossbow, dagger, heavy crossbow, staff, and unarmed attacks.</p>\n<h2 class=\"title\">Defensive Robes<span style=\"float: right;\">Level 13</span></h2>\n<p>The flow of magic and your training combine to help you avoid attacks. Your proficiency rank in unarmored defense increases to expert.</p>\n<h2 class=\"title\">Weapon Specialization<span style=\"float: right;\">Level 13</span></h2>\n<p>You've learned how to inflict greater injuries with the weapons you know best. You deal an additional 2 damage with weapons and unarmed attacks in which you are an expert. This damage increases to 3 if you're a master, and 4 if you're legendary.</p>\n<h2 class=\"title\">Master Spellcaster<span style=\"float: right;\">Level 15</span></h2>\n<p>You command superlative spellcasting ability. Your proficiency ranks for arcane spell attack rolls and spell DCs increase to master.</p>\n<h2 class=\"title\">Resolve<span style=\"float: right;\">Level 17</span></h2>\n<p>You've steeled your mind with resolve. Your proficiency rank for Will saves increases to master. When you roll a success at a Will save, you get a critical success instead.</p>\n<h2 class=\"title\">Archwizard's Spellcraft<span style=\"float: right;\">Level 19</span></h2>\n<p>You command the most potent arcane magic and can cast a spell of truly incredible power. You gain a single 10th-level spell slot and can prepare a spell in that slot using arcane spellcasting. Unlike with other spell slots, you don't gain more 10th-level spells as you level up, though you can take the @Compendium[pf2e.feats-srd.Archwizard's Might]{Archwizard's Might} feat to gain a second slot.</p>\n<h2 class=\"title\">Legendary Spellcaster<span style=\"float: right;\">Level 19</span></h2>\n<p>You are a consummate spellcaster, with a comprehensive understanding of both arcane theory and practical spellcraft. Your proficiency ranks for arcane spell attack rolls and spell DCs increase to legendary.</p>"
        },
        "generalFeatLevels": {
            "value": [
                3,
                7,
                11,
                15,
                19
            ]
        },
        "hp": 6,
        "items": {
            "4x1uf": {
                "id": "1NGTc0gqEtwaFqUK",
                "img": "systems/pf2e/icons/features/classes/weapon-specialization.jpg",
                "level": 13,
                "name": "Weapon Specialization (Level 13)",
                "pack": "pf2e.classfeatures"
            },
            "55liz": {
                "id": "9WjZSliQZJlyGvUi",
                "img": "systems/pf2e/icons/features/classes/resolve.jpg",
                "level": 17,
                "name": "Resolve (Level 17)",
                "pack": "pf2e.classfeatures"
            },
            "7bbgv": {
                "id": "cD3nSupdCvONuHiE",
                "img": "systems/pf2e/icons/features/classes/expert-spellcaster.jpg",
                "level": 7,
                "name": "Expert Spellcaster (Level 7)",
                "pack": "pf2e.classfeatures"
            },
            "c3blc": {
                "id": "Hfaa7TuLn3nE8lr3",
                "img": "systems/pf2e/icons/features/classes/legendary-spellcaster.jpg",
                "level": 19,
                "name": "Legendary Spellcaster (Level 19)",
                "pack": "pf2e.classfeatures"
            },
            "djzu5": {
                "id": "ZjwJHmjPrSs6VDez",
                "img": "systems/pf2e/icons/features/classes/archwizards-spellcraft.jpg",
                "level": "19",
                "name": "Archwizard's Spellcraft",
                "pack": "pf2e.classfeatures"
            },
            "e2udf": {
                "id": "7nbKDBGvwSx9T27G",
                "img": "systems/pf2e/icons/default-icons/feat.svg",
                "level": 1,
                "name": "Arcane School",
                "pack": "pf2e.classfeatures"
            },
            "fqsfu": {
                "id": "l1InYvhnQSz6Ucxc",
                "img": "systems/pf2e/icons/features/classes/master-spellcaster.jpg",
                "level": 15,
                "name": "Master Spellcaster (Level 15)",
                "pack": "pf2e.classfeatures"
            },
            "hbsn6": {
                "id": "M89l9FOnjHe63wD7",
                "img": "systems/pf2e/icons/features/classes/arcane-thesis.jpg",
                "level": "1",
                "name": "Arcane Thesis",
                "pack": "pf2e.classfeatures"
            },
            "hvg8h": {
                "id": "S6WW4Yyg4XonXGHD",
                "img": "systems/pf2e/icons/features/classes/archwizards-spellcraft.jpg",
                "level": "1",
                "name": "Arcane Spellcasting",
                "pack": "pf2e.classfeatures"
            },
            "mqstv": {
                "id": "rz87RgR1crWTd7j5",
                "img": "systems/pf2e/icons/features/classes/lightning-reflexes.jpg",
                "level": 5,
                "name": "Lightning Reflexes (Level 5)",
                "pack": "pf2e.classfeatures"
            },
            "p9c01": {
                "id": "MzyPNlxrNA5OKVd7",
                "img": "systems/pf2e/icons/features/classes/magical-fortitude.jpg",
                "level": 9,
                "name": "Magical Fortitude (Level 9)",
                "pack": "pf2e.classfeatures"
            },
            "phtt9": {
                "id": "OZaJz4exCoz6vuuv",
                "img": "systems/pf2e/icons/features/classes/alertness.jpg",
                "level": 11,
                "name": "Alertness (Level 11)",
                "pack": "pf2e.classfeatures"
            },
            "v5yt7": {
                "id": "au0lwQ1nAcNQwcGh",
                "img": "systems/pf2e/icons/features/classes/arcane-bond.jpg",
                "level": "1",
                "name": "Arcane Bond",
                "pack": "pf2e.classfeatures"
            },
            "yp2vs": {
                "id": "GBsC2cARoFiqMi9V",
                "img": "systems/pf2e/icons/features/classes/wizard-weapon-expertise.jpg",
                "level": "11",
                "name": "Wizard Weapon Expertise",
                "pack": "pf2e.classfeatures"
            },
            "ytft4": {
                "id": "gU7epgcPSm0TD1UK",
                "img": "systems/pf2e/icons/features/classes/defensive-robes.jpg",
                "level": 13,
                "name": "Defensive Robes (Level 13)",
                "pack": "pf2e.classfeatures"
            }
        },
        "keyAbility": {
            "value": [
                "int"
            ]
        },
        "perception": 1,
        "rarity": {
            "value": "common"
        },
        "rules": [],
        "savingThrows": {
            "fortitude": 1,
            "reflex": 1,
            "will": 2
        },
        "skillFeatLevels": {
            "value": [
                2,
                4,
                6,
                8,
                10,
                12,
                14,
                16,
                18,
                20
            ]
        },
        "skillIncreaseLevels": {
            "value": [
                3,
                5,
                7,
                9,
                11,
                13,
                15,
                17,
                19
            ]
        },
        "source": {
            "value": ""
        },
        "trainedSkills": {
            "additional": 2,
            "value": [
                "arc"
            ]
        },
        "traits": {
            "custom": "",
            "rarity": {
                "value": "common"
            },
            "value": []
        }
    },
    "effects": [
        {
            "_id": "snhfsEvZXQcSxaTF",
            "changes": [
                {
                    "key": "data.attributes.perception.rank",
                    "mode": 4,
                    "value": 1
                },
                {
                    "key": "data.saves.fortitude.rank",
                    "mode": 4,
                    "value": 1
                },
                {
                    "key": "data.saves.reflex.rank",
                    "mode": 4,
                    "value": 1
                },
                {
                    "key": "data.saves.will.rank",
                    "mode": 4,
                    "value": 2
                },
                {
                    "key": "data.skills.arc.rank",
                    "mode": 4,
                    "value": 1
                },
                {
                    "key": "data.martial.weapon-base-club.rank",
                    "mode": 4,
                    "value": 1
                },
                {
                    "key": "data.martial.weapon-base-crossbow.rank",
                    "mode": 4,
                    "value": 1
                },
                {
                    "key": "data.martial.weapon-base-dagger.rank",
                    "mode": 4,
                    "value": 1
                },
                {
                    "key": "data.martial.weapon-base-heavy-crossbow.rank",
                    "mode": 4,
                    "value": 1
                },
                {
                    "key": "data.martial.weapon-base-staff.rank",
                    "mode": 4,
                    "value": 1
                },
                {
                    "key": "data.martial.unarmed.rank",
                    "mode": 4,
                    "value": 1
                },
                {
                    "key": "data.martial.unarmored.rank",
                    "mode": 4,
                    "value": 1
                }
            ],
            "disabled": false,
            "duration": {
                "rounds": null,
                "seconds": null,
                "startRound": null,
                "startTime": null,
                "startTurn": null,
                "turns": null
            },
            "flags": {},
            "icon": "systems/pf2e/icons/classes/wizard.webp",
            "label": "Initial Proficiencies",
            "origin": "",
            "tint": "",
            "transfer": true
        },
        {
            "_id": "85WGHfJbFcoWzuci",
            "changes": [
                {
                    "key": "data.details.keyability.value",
                    "mode": 5,
                    "value": "int"
                }
            ],
            "disabled": false,
            "duration": {
                "rounds": null,
                "seconds": null,
                "startRound": null,
                "startTime": null,
                "startTurn": null,
                "turns": null
            },
            "flags": {},
            "icon": "systems/pf2e/icons/classes/wizard.webp",
            "label": "Key Ability",
            "origin": "",
            "tint": "",
            "transfer": true
        }
    ],
    "flags": {},
    "img": "systems/pf2e/icons/classes/wizard.webp",
    "name": "Wizard",
    "permission": {
        "default": 0
    },
    "type": "class"
}
