{
    "_id": "WrWSieH9Acy6XuzV",
    "data": {
        "description": {
            "value": "<p>Granted by @Compendium[pf2e.feats-srd.Educate Allies]{Educate Allies}.</p>"
        },
        "duration": {
            "expiry": "turn-start",
            "sustained": false,
            "unit": "rounds",
            "value": 1
        },
        "level": {
            "value": 1
        },
        "rarity": {
            "value": "common"
        },
        "rules": [
            {
                "key": "PF2E.RuleElement.FlatModifier",
                "label": "Educate Allies (vs. performative effects)",
                "predicate": {
                    "any": [
                        "auditory",
                        "illusion",
                        "linguistic",
                        "sonic",
                        "visual"
                    ]
                },
                "selector": "saving-throw",
                "type": "circumstance",
                "value": 1
            }
        ],
        "source": {
            "value": ""
        },
        "start": {
            "initiative": null,
            "value": 0
        },
        "target": null,
        "traits": {
            "custom": "",
            "rarity": {
                "value": "common"
            },
            "value": []
        }
    },
    "effects": [],
    "flags": {},
    "img": "systems/pf2e/icons/spells/abyssal-pact.jpg",
    "name": "Effect: Educate Allies (Ally)",
    "permission": {
        "default": 0
    },
    "type": "effect"
}
