{
    "_id": "l4QUaedYofnfXig0",
    "data": {
        "description": {
            "value": "<p>Granted by @Compendium[pf2e.feats-srd.Multishot Stance]{Multishot Stance}.</p>\n<p>While you are in this stance, your penalty for Double Shot is reduced to -1, or -2 if you add the extra action to make three Strikes. If you move from your position, this stance ends.</p>"
        },
        "duration": {
            "expiry": "turn-start",
            "sustained": false,
            "unit": "unlimited",
            "value": -1
        },
        "level": {
            "value": 16
        },
        "rarity": {
            "value": "common"
        },
        "rules": [
            {
                "key": "PF2E.RuleElement.TokenEffectIcon"
            },
            {
                "key": "PF2E.RuleElement.FlatModifier",
                "label": "Double Shot (Multishot Stance)",
                "predicate": {
                    "all": [
                        "ranged",
                        "double-shot"
                    ]
                },
                "roll-options": [
                    "all"
                ],
                "selector": "attack",
                "value": -1
            },
            {
                "key": "PF2E.RuleElement.FlatModifier",
                "label": "Triple Shot (Multishot Stance)",
                "predicate": {
                    "all": [
                        "ranged",
                        "triple-shot"
                    ]
                },
                "roll-options": [
                    "all"
                ],
                "selector": "attack",
                "value": -2
            }
        ],
        "source": {
            "value": ""
        },
        "start": {
            "initiative": null,
            "value": 0
        },
        "target": null,
        "traits": {
            "custom": "",
            "rarity": {
                "value": "common"
            },
            "value": []
        }
    },
    "effects": [],
    "flags": {},
    "img": "systems/pf2e/icons/equipment/consumables/ammunition/sleep-arrow.jpg",
    "name": "Stance: Multishot Stance",
    "permission": {
        "default": 0
    },
    "type": "effect"
}
